%YAML 1.1
%TAG !u! tag:unity3d.com,2011:
--- !u!74 &7400000
AnimationClip:
  m_ObjectHideFlags: 0
  m_PrefabParentObject: {fileID: 0}
  m_PrefabInternal: {fileID: 0}
  m_Name: Pyramid_Idle
  serializedVersion: 6
  m_Legacy: 0
  m_Compressed: 0
  m_UseHighQualityCurve: 1
  m_RotationCurves:
  - curve:
      serializedVersion: 2
      m_Curve:
      - serializedVersion: 2
        time: 0
        value: {x: 0, y: -0, z: -0, w: 1}
        inSlope: {x: 0, y: 0, z: 0, w: 0}
        outSlope: {x: 0, y: 0, z: 0, w: 0}
        tangentMode: 0
      - serializedVersion: 2
        time: 3.9583335
        value: {x: 0, y: -0, z: -0, w: 1}
        inSlope: {x: 0, y: 0, z: 0, w: 0}
        outSlope: {x: 0, y: 0, z: 0, w: 0}
        tangentMode: 0
      m_PreInfinity: 2
      m_PostInfinity: 2
      m_RotationOrder: 4
    path: pyramide
  - curve:
      serializedVersion: 2
      m_Curve:
      - serializedVersion: 2
        time: 0
        value: {x: 0.05484828, y: 0.20766144, z: 0.34169006, w: 0.9149406}
        inSlope: {x: 0, y: 0, z: 0, w: 0}
        outSlope: {x: 0, y: 0, z: 0, w: 0}
        tangentMode: 0
      - serializedVersion: 2
        time: 3.9583335
        value: {x: 0.05484828, y: 0.20766144, z: 0.34169006, w: 0.9149406}
        inSlope: {x: 0, y: 0, z: 0, w: 0}
        outSlope: {x: 0, y: 0, z: 0, w: 0}
        tangentMode: 0
      m_PreInfinity: 2
      m_PostInfinity: 2
      m_RotationOrder: 4
    path: pyramide/transform3/body_pyramid/Rshoulder
  - curve:
      serializedVersion: 2
      m_Curve:
      - serializedVersion: 2
        time: 0
        value: {x: 0.128627, y: -0.23288278, z: 0.424095, w: 0.8656582}
        inSlope: {x: 0, y: 0, z: 0, w: 0}
        outSlope: {x: 0, y: 0, z: 0, w: 0}
        tangentMode: 0
      - serializedVersion: 2
        time: 3.9583335
        value: {x: 0.128627, y: -0.23288278, z: 0.424095, w: 0.8656582}
        inSlope: {x: 0, y: 0, z: 0, w: 0}
        outSlope: {x: 0, y: 0, z: 0, w: 0}
        tangentMode: 0
      m_PreInfinity: 2
      m_PostInfinity: 2
      m_RotationOrder: 4
    path: pyramide/transform3/body_pyramid/Rshoulder/Relbowq
  - curve:
      serializedVersion: 2
      m_Curve:
      - serializedVersion: 2
        time: 0
        value: {x: 0.00842601, y: 0.99996454, z: -6.071423e-17, w: -6.1746114e-17}
        inSlope: {x: 0, y: 0, z: 0, w: 0}
        outSlope: {x: 0, y: 0, z: 0, w: 0}
        tangentMode: 0
      - serializedVersion: 2
        time: 3.9583335
        value: {x: 0.00842601, y: 0.99996454, z: -6.071423e-17, w: -6.1746114e-17}
        inSlope: {x: 0, y: 0, z: 0, w: 0}
        outSlope: {x: 0, y: 0, z: 0, w: 0}
        tangentMode: 0
      m_PreInfinity: 2
      m_PostInfinity: 2
      m_RotationOrder: 4
    path: pyramide/transform3/body_pyramid/Rshoulder/Relbowq/Rhand
  - curve:
      serializedVersion: 2
      m_Curve:
      - serializedVersion: 2
        time: 0
        value: {x: 0.29166043, y: 0.9547685, z: -0.017928297, w: 0.055045582}
        inSlope: {x: 0, y: 0, z: 0, w: 0}
        outSlope: {x: 0, y: 0, z: 0, w: 0}
        tangentMode: 0
      - serializedVersion: 2
        time: 3.9583335
        value: {x: 0.29166043, y: 0.9547685, z: -0.017928297, w: 0.055045582}
        inSlope: {x: 0, y: 0, z: 0, w: 0}
        outSlope: {x: 0, y: 0, z: 0, w: 0}
        tangentMode: 0
      m_PreInfinity: 2
      m_PostInfinity: 2
      m_RotationOrder: 4
    path: pyramide/transform3/body_pyramid/Lshoulder
  - curve:
      serializedVersion: 2
      m_Curve:
      - serializedVersion: 2
        time: 0
        value: {x: -0.12435459, y: 0.29398584, z: 0.4339331, w: 0.8425024}
        inSlope: {x: 0, y: 0, z: 0, w: 0}
        outSlope: {x: 0, y: 0, z: 0, w: 0}
        tangentMode: 0
      - serializedVersion: 2
        time: 3.9583335
        value: {x: -0.12435459, y: 0.29398584, z: 0.4339331, w: 0.8425024}
        inSlope: {x: 0, y: 0, z: 0, w: 0}
        outSlope: {x: 0, y: 0, z: 0, w: 0}
        tangentMode: 0
      m_PreInfinity: 2
      m_PostInfinity: 2
      m_RotationOrder: 4
    path: pyramide/transform3/body_pyramid/Lshoulder/Lelbow
  - curve:
      serializedVersion: 2
      m_Curve:
      - serializedVersion: 2
        time: 0
        value: {x: 0.015951393, y: 0.9998728, z: -6.024781e-17, w: -6.2201295e-17}
        inSlope: {x: 0, y: 0, z: 0, w: 0}
        outSlope: {x: 0, y: 0, z: 0, w: 0}
        tangentMode: 0
      - serializedVersion: 2
        time: 3.9583335
        value: {x: 0.015951393, y: 0.9998728, z: -6.024781e-17, w: -6.2201295e-17}
        inSlope: {x: 0, y: 0, z: 0, w: 0}
        outSlope: {x: 0, y: 0, z: 0, w: 0}
        tangentMode: 0
      m_PreInfinity: 2
      m_PostInfinity: 2
      m_RotationOrder: 4
    path: pyramide/transform3/body_pyramid/Lshoulder/Lelbow/Lhand
  - curve:
      serializedVersion: 2
      m_Curve:
      - serializedVersion: 2
        time: 0
        value: {x: -0.49502593, y: -0.50492513, z: 0.49502593, w: 0.50492513}
        inSlope: {x: 0.049756765, y: -0.04858017, z: -0.049756765, w: 0.04858017}
        outSlope: {x: 0.049756765, y: -0.04858017, z: -0.049756765, w: 0.04858017}
        tangentMode: 0
      - serializedVersion: 2
        time: 0.33333334
        value: {x: -0.47906107, y: -0.5200966, z: 0.47906107, w: 0.5200966}
        inSlope: {x: -0.031473048, y: 0.029040106, z: 0.031473048, w: -0.029040106}
        outSlope: {x: -0.031473048, y: 0.029040106, z: 0.031473048, w: -0.029040106}
        tangentMode: 0
      - serializedVersion: 2
        time: 0.875
        value: {x: -0.52196795, y: -0.47702146, z: 0.52196795, w: 0.47702146}
        inSlope: {x: -0.018680345, y: 0.020407332, z: 0.018680345, w: -0.020407332}
        outSlope: {x: -0.018680345, y: 0.020407332, z: 0.018680345, w: -0.020407332}
        tangentMode: 0
      - serializedVersion: 2
        time: 0.9583334
        value: {x: -0.51199216, y: -0.48771316, z: 0.51199216, w: 0.48771316}
        inSlope: {x: 0.40590033, y: -0.41538498, z: -0.40590033, w: 0.41538498}
        outSlope: {x: 0.40590033, y: -0.41538498, z: -0.40590033, w: 0.41538498}
        tangentMode: 0
      - serializedVersion: 2
        time: 1.0833334
        value: {x: -0.42571852, y: -0.56459165, z: 0.42571852, w: 0.56459165}
        inSlope: {x: 0.8353137, y: -0.62822545, z: -0.8353137, w: 0.62822545}
        outSlope: {x: 0.8353137, y: -0.62822545, z: -0.8353137, w: 0.62822545}
        tangentMode: 0
      - serializedVersion: 2
        time: 1.2916667
        value: {x: -0.22050753, y: -0.67184556, z: 0.22050753, w: 0.67184556}
        inSlope: {x: 1.0794638, y: -0.35505772, z: -1.0794638, w: 0.35505772}
        outSlope: {x: 1.0794638, y: -0.35505772, z: -1.0794638, w: 0.35505772}
        tangentMode: 0
      - serializedVersion: 2
        time: 1.5
        value: {x: -0.03915176, y: -0.7060221, z: 0.03915176, w: 0.7060221}
        inSlope: {x: 0.40439045, y: -0.025608309, z: -0.40438926, w: 0.025608309}
        outSlope: {x: 0.40439045, y: -0.025608309, z: -0.40438926, w: 0.025608309}
        tangentMode: 0
      - serializedVersion: 2
        time: 1.625
        value: {x: -0.054172803, y: -0.7050286, z: 0.054172803, w: 0.7050286}
        inSlope: {x: -0.8077364, y: 0.07429424, z: 0.8077364, w: -0.07429424}
        outSlope: {x: -0.8077364, y: 0.07429424, z: 0.8077364, w: -0.07429424}
        tangentMode: 0
      - serializedVersion: 2
        time: 1.7083334
        value: {x: -0.1628015, y: -0.68811023, z: 0.1628015, w: 0.68811023}
        inSlope: {x: -1.9165622, y: 0.5027895, z: 1.9165622, w: -0.5027895}
        outSlope: {x: -1.9165622, y: 0.5027895, z: 1.9165622, w: -0.5027895}
        tangentMode: 0
      - serializedVersion: 2
        time: 1.75
        value: {x: -0.25805974, y: -0.65833515, z: 0.25805974, w: 0.65833515}
        inSlope: {x: -1.3235006, y: 0.43041462, z: 1.3235006, w: -0.43041462}
        outSlope: {x: -1.3235006, y: 0.43041462, z: 1.3235006, w: -0.43041462}
        tangentMode: 0
      - serializedVersion: 2
        time: 1.7916667
        value: {x: -0.27309316, y: -0.65224236, z: 0.27309316, w: 0.65224236}
        inSlope: {x: -0.4510731, y: 0.19202682, z: 0.4510731, w: -0.19202682}
        outSlope: {x: -0.4510731, y: 0.19202682, z: 0.4510731, w: -0.19202682}
        tangentMode: 0
      - serializedVersion: 2
        time: 1.8333334
        value: {x: -0.29564917, y: -0.6423329, z: 0.29564917, w: 0.6423329}
        inSlope: {x: -0.5425585, y: 0.24996495, z: 0.5425585, w: -0.24996495}
        outSlope: {x: -0.5425585, y: 0.24996495, z: 0.5425585, w: -0.24996495}
        tangentMode: 0
      - serializedVersion: 2
        time: 1.875
        value: {x: -0.31830633, y: -0.63141197, z: 0.31830633, w: 0.63141197}
        inSlope: {x: 0.22215614, y: -0.09842293, z: -0.22215614, w: 0.09842293}
        outSlope: {x: 0.22215614, y: -0.09842293, z: -0.22215614, w: 0.09842293}
        tangentMode: 0
      - serializedVersion: 2
        time: 1.9166667
        value: {x: -0.27713606, y: -0.65053487, z: 0.27713606, w: 0.65053487}
        inSlope: {x: 0.5566444, y: -0.255848, z: -0.5566444, w: 0.255848}
        outSlope: {x: 0.5566444, y: -0.255848, z: -0.5566444, w: 0.255848}
        tangentMode: 0
      - serializedVersion: 2
        time: 2
        value: {x: -0.28071645, y: -0.6489979, z: 0.28071645, w: 0.6489979}
        inSlope: {x: -0.3355408, y: 0.1483732, z: 0.3355408, w: -0.1483732}
        outSlope: {x: -0.3355408, y: 0.1483732, z: 0.3355408, w: -0.1483732}
        tangentMode: 0
      - serializedVersion: 2
        time: 2.2083335
        value: {x: -0.43056878, y: -0.5609015, z: 0.43056878, w: 0.5609015}
        inSlope: {x: -0.83841777, y: 0.6436229, z: 0.83841777, w: -0.6436229}
        outSlope: {x: -0.83841777, y: 0.6436229, z: 0.83841777, w: -0.6436229}
        tangentMode: 0
      - serializedVersion: 2
        time: 2.375
        value: {x: -0.53717494, y: -0.45982942, z: 0.53717494, w: 0.45982942}
        inSlope: {x: -0.31442553, y: 0.3621403, z: 0.31442553, w: -0.3621403}
        outSlope: {x: -0.31442553, y: 0.3621403, z: 0.31442553, w: -0.3621403}
        tangentMode: 0
      - serializedVersion: 2
        time: 2.5
        value: {x: -0.5628033, y: -0.42807993, z: 0.5628033, w: 0.42807993}
        inSlope: {x: -0.15083264, y: 0.19720988, z: 0.15083264, w: -0.19720988}
        outSlope: {x: -0.15083264, y: 0.19720988, z: 0.15083264, w: -0.19720988}
        tangentMode: 0
      - serializedVersion: 2
        time: 2.625
        value: {x: -0.5692762, y: -0.41943365, z: 0.5692762, w: 0.41943365}
        inSlope: {x: -0.009857673, y: 0.013369586, z: 0.009857673, w: -0.013369586}
        outSlope: {x: -0.009857673, y: 0.013369586, z: 0.009857673, w: -0.013369586}
        tangentMode: 0
      - serializedVersion: 2
        time: 2.6666667
        value: {x: -0.56954646, y: -0.41906664, z: 0.56954646, w: 0.41906664}
        inSlope: {x: 0.22908166, y: -0.29694822, z: -0.22908166, w: 0.29694822}
        outSlope: {x: 0.22908166, y: -0.29694822, z: -0.22908166, w: 0.29694822}
        tangentMode: 0
      - serializedVersion: 2
        time: 2.75
        value: {x: -0.51977885, y: -0.47940582, z: 0.51977885, w: 0.47940582}
        inSlope: {x: 0.74968165, y: -0.8137591, z: -0.74968165, w: 0.8137591}
        outSlope: {x: 0.74968165, y: -0.8137591, z: -0.74968165, w: 0.8137591}
        tangentMode: 0
      - serializedVersion: 2
        time: 3.0833335
        value: {x: -0.20626862, y: -0.6763529, z: 0.20626862, w: 0.6763529}
        inSlope: {x: 1.156419, y: -0.35198832, z: -1.156419, w: 0.35198832}
        outSlope: {x: 1.156419, y: -0.35198832, z: -1.156419, w: 0.35198832}
        tangentMode: 0
      - serializedVersion: 2
        time: 3.2083335
        value: {x: -0.06290018, y: -0.7043036, z: 0.06290018, w: 0.7043036}
        inSlope: {x: 0.9930596, y: -0.09452389, z: -0.9930596, w: 0.09452389}
        outSlope: {x: 0.9930596, y: -0.09452389, z: -0.9930596, w: 0.09452389}
        tangentMode: 0
      - serializedVersion: 2
        time: 3.3333335
        value: {x: -0.0018076235, y: -0.7071045, z: 0.0018076235, w: 0.7071045}
        inSlope: {x: -0.49454606, y: 0.014556941, z: 0.49454606, w: -0.014556941}
        outSlope: {x: -0.49454606, y: 0.014556941, z: 0.49454606, w: -0.014556941}
        tangentMode: 0
      - serializedVersion: 2
        time: 3.4166667
        value: {x: -0.1106354, y: -0.69839805, z: 0.1106354, w: 0.69839805}
        inSlope: {x: -1.91566, y: 0.3356181, z: 1.91566, w: -0.3356181}
        outSlope: {x: -1.91566, y: 0.3356181, z: 1.91566, w: -0.3356181}
        tangentMode: 0
      - serializedVersion: 2
        time: 3.4583335
        value: {x: -0.20104001, y: -0.67792547, z: 0.20104001, w: 0.67792547}
        inSlope: {x: -2.4835188, y: 0.79953736, z: 2.4835188, w: -0.79953736}
        outSlope: {x: -2.4835188, y: 0.79953736, z: 2.4835188, w: -0.79953736}
        tangentMode: 0
      - serializedVersion: 2
        time: 3.5
        value: {x: -0.31759503, y: -0.6317701, z: 0.31759503, w: 0.6317701}
        inSlope: {x: -1.5148407, y: 0.6133924, z: 1.5148407, w: -0.6133924}
        outSlope: {x: -1.5148407, y: 0.6133924, z: 1.5148407, w: -0.6133924}
        tangentMode: 0
      - serializedVersion: 2
        time: 3.5416667
        value: {x: -0.32727632, y: -0.6268096, z: 0.32727632, w: 0.6268096}
        inSlope: {x: -0.29232302, y: 0.15415591, z: 0.29232302, w: -0.15415591}
        outSlope: {x: -0.29232302, y: 0.15415591, z: 0.29232302, w: -0.15415591}
        tangentMode: 0
      - serializedVersion: 2
        time: 3.6666667
        value: {x: -0.38203534, y: -0.5950202, z: 0.38203534, w: 0.5950202}
        inSlope: {x: -0.53432506, y: 0.34442073, z: 0.53432506, w: -0.34442073}
        outSlope: {x: -0.53432506, y: 0.34442073, z: 0.53432506, w: -0.34442073}
        tangentMode: 0
      - serializedVersion: 2
        time: 3.7083335
        value: {x: -0.40509617, y: -0.5795663, z: 0.40509617, w: 0.5795663}
        inSlope: {x: -0.32324803, y: 0.21819353, z: 0.32324803, w: -0.21819353}
        outSlope: {x: -0.32324803, y: 0.21819353, z: 0.32324803, w: -0.21819353}
        tangentMode: 0
      - serializedVersion: 2
        time: 3.75
        value: {x: -0.4089727, y: -0.57683736, z: 0.4089727, w: 0.57683736}
        inSlope: {x: -0.21153747, y: 0.15275206, z: 0.21153747, w: -0.15275206}
        outSlope: {x: -0.21153747, y: 0.15275206, z: 0.21153747, w: -0.15275206}
        tangentMode: 0
      - serializedVersion: 2
        time: 3.875
        value: {x: -0.4655137, y: -0.5322565, z: 0.4655137, w: 0.5322565}
        inSlope: {x: -0.5025711, y: 0.43805525, z: 0.5025711, w: -0.43805525}
        outSlope: {x: -0.5025711, y: 0.43805525, z: 0.5025711, w: -0.43805525}
        tangentMode: 0
      - serializedVersion: 2
        time: 3.9583335
        value: {x: -0.49502593, y: -0.50492513, z: 0.49502593, w: 0.50492513}
        inSlope: {x: -0.23591807, y: 0.22687154, z: 0.23591807, w: -0.22687154}
        outSlope: {x: -0.23591807, y: 0.22687154, z: 0.23591807, w: -0.22687154}
        tangentMode: 0
      m_PreInfinity: 2
      m_PostInfinity: 2
      m_RotationOrder: 4
    path: pyramide/transform3/body_pyramid/spine/hip/Rhip
  - curve:
      serializedVersion: 2
      m_Curve:
      - serializedVersion: 2
        time: 0
        value: {x: 0, y: -0, z: -0.03992438, w: 0.9992027}
        inSlope: {x: 1.9330735e-19, y: 1.1445437e-17, z: 0.02121815, w: 0.0008382797}
        outSlope: {x: 1.9330735e-19, y: 1.1445437e-17, z: 0.02121815, w: 0.0008382797}
        tangentMode: 0
      - serializedVersion: 2
        time: 0.7083334
        value: {x: 3.57998e-20, y: 6.700528e-18, z: -0.027501665, w: 0.9996218}
        inSlope: {x: 6.950071e-20, y: -9.690849e-18, z: -0.017969083, w: -0.0004935266}
        outSlope: {x: 6.950071e-20, y: -9.690849e-18, z: -0.017969083, w: -0.0004935266}
        tangentMode: 0
      - serializedVersion: 2
        time: 1.0416667
        value: {x: -1.843667e-19, y: 1.5849949e-17, z: -0.010530673, w: 0.99994457}
        inSlope: {x: -4.416575e-18, y: 1.0752357e-16, z: 0.19953495, w: 0.002098558}
        outSlope: {x: -4.416575e-18, y: 1.0752357e-16, z: 0.19953495, w: 0.002098558}
        tangentMode: 0
      - serializedVersion: 2
        time: 1.5833334
        value: {x: -1.7181783e-18, y: 3.556342e-17, z: 0.026110226, w: 0.99965906}
        inSlope: {x: 1.2053334e-17, y: -1.0937067e-16, z: -0.20364684, w: 0.0048630284}
        outSlope: {x: 1.2053334e-17, y: -1.0937067e-16, z: -0.20364684, w: 0.0048630284}
        tangentMode: 0
      - serializedVersion: 2
        time: 1.6666667
        value: {x: -5.114357e-19, y: 2.2066666e-17, z: 0.001010341, w: 0.9999995}
        inSlope: {x: 1.2599233e-17, y: -2.0680153e-16, z: -0.38406676, w: -0.0002360387}
        outSlope: {x: 1.2599233e-17, y: -2.0680153e-16, z: -0.38406676, w: -0.0002360387}
        tangentMode: 0
      - serializedVersion: 2
        time: 1.7083334
        value: {x: -6.96544e-20, y: 1.256854e-17, z: -0.01661854, w: 0.99986196}
        inSlope: {x: 4.5081783e-16, y: -4.106939e-15, z: -0.012123898, w: 0.000005722046}
        outSlope: {x: 4.5081783e-16, y: -4.106939e-15, z: -0.012123898, w: 0.000005722046}
        tangentMode: 0
      - serializedVersion: 2
        time: 1.75
        value: {x: 3.7056682e-17, y: -3.2017795e-16, z: 0.000000018137671, w: 1}
        inSlope: {x: 4.4551646e-16, y: -3.9929616e-15, z: 0.1994229, w: 0.0016565339}
        outSlope: {x: 4.4551646e-16, y: -3.9929616e-15, z: 0.1994229, w: 0.0016565339}
        tangentMode: 0
      - serializedVersion: 2
        time: 1.8333334
        value: {x: 3.7056682e-17, y: -3.2017795e-16, z: 0.00000001813768, w: 1}
        inSlope: {x: 0, y: 0, z: 0, w: 0}
        outSlope: {x: 0, y: 0, z: 0, w: 0}
        tangentMode: 0
      - serializedVersion: 2
        time: 1.875
        value: {x: 3.7056682e-17, y: -3.2017795e-16, z: 0.000000018137671, w: 1}
        inSlope: {x: -4.4459764e-16, y: 3.952282e-15, z: -0.27486375, w: -0.0031478344}
        outSlope: {x: -4.4459764e-16, y: 3.952282e-15, z: -0.27486375, w: -0.0031478344}
        tangentMode: 0
      - serializedVersion: 2
        time: 1.9166667
        value: {x: 6.810059e-21, y: 9.1795e-18, z: -0.022905339, w: 0.9997377}
        inSlope: {x: -4.4602717e-16, y: 4.009258e-15, z: -0.1691727, w: -0.0011923234}
        outSlope: {x: -4.4602717e-16, y: 4.009258e-15, z: -0.1691727, w: -0.0011923234}
        tangentMode: 0
      - serializedVersion: 2
        time: 1.9583334
        value: {x: -1.1231549e-19, y: 1.3927493e-17, z: -0.0140977595, w: 0.99990064}
        inSlope: {x: -2.9535245e-18, y: 9.523796e-17, z: 0.17669088, w: 0.0027465846}
        outSlope: {x: -2.9535245e-18, y: 9.523796e-17, z: 0.17669088, w: 0.0027465846}
        tangentMode: 0
      - serializedVersion: 2
        time: 2.5
        value: {x: 1.5781593e-20, y: 9.902614e-19, z: -0.038088582, w: 0.9992744}
        inSlope: {x: 4.3680424e-17, y: -5.731192e-16, z: 0.012497406, w: 0.00043558294}
        outSlope: {x: 4.3680424e-17, y: -5.731192e-16, z: 0.012497406, w: 0.00043558294}
        tangentMode: 0
      - serializedVersion: 2
        time: 2.625
        value: {x: 2.9090807e-17, y: -2.6692208e-16, z: -0.0066673416, w: 0.99997777}
        inSlope: {x: 2.463413e-16, y: -1.7939715e-15, z: 0.22425169, w: 0.0020957058}
        outSlope: {x: 2.463413e-16, y: -1.7939715e-15, z: 0.22425169, w: 0.0020957058}
        tangentMode: 0
      - serializedVersion: 2
        time: 2.6666667
        value: {x: 3.7056643e-17, y: -3.2017769e-16, z: -0.000000006815005, w: 1}
        inSlope: {x: -3.4859948e-16, y: 3.2489876e-15, z: -0.31395096, w: -0.006201971}
        outSlope: {x: -3.4859948e-16, y: 3.2489876e-15, z: -0.31395096, w: -0.006201971}
        tangentMode: 0
      - serializedVersion: 2
        time: 2.7083335
        value: {x: 4.0796183e-20, y: 3.827395e-18, z: -0.03282997, w: 0.99946094}
        inSlope: {x: -4.447288e-16, y: 3.9598384e-15, z: -0.2608362, w: -0.0028352477}
        outSlope: {x: -4.447288e-16, y: 3.9598384e-15, z: -0.2608362, w: -0.0028352477}
        tangentMode: 0
      - serializedVersion: 2
        time: 2.75
        value: {x: -4.1609156e-21, y: 9.809442e-18, z: -0.021736464, w: 0.9997637}
        inSlope: {x: -2.5182358e-18, y: 1.3971712e-16, z: 0.2591419, w: 0.0057113273}
        outSlope: {x: -2.5182358e-18, y: 1.3971712e-16, z: 0.2591419, w: 0.0057113273}
        tangentMode: 0
      - serializedVersion: 2
        time: 3.2916667
        value: {x: -3.669974e-18, y: 4.9410866e-17, z: 0.05195275, w: 0.99864954}
        inSlope: {x: 8.947571e-18, y: -5.5185454e-17, z: -0.10317017, w: 0.005104771}
        outSlope: {x: 8.947571e-18, y: -5.5185454e-17, z: -0.10317017, w: 0.005104771}
        tangentMode: 0
      - serializedVersion: 2
        time: 3.4166667
        value: {x: -9.7961e-19, y: 2.824971e-17, z: 0.012500255, w: 0.99992186}
        inSlope: {x: 2.2450353e-17, y: -2.701788e-16, z: -0.5023121, w: 0.0052342317}
        outSlope: {x: 2.2450353e-17, y: -2.701788e-16, z: -0.5023121, w: 0.0052342317}
        tangentMode: 0
      - serializedVersion: 2
        time: 3.4583335
        value: {x: -1.8472587e-19, y: 1.5859615e-17, z: -0.010511518, w: 0.99994475}
        inSlope: {x: 4.564372e-16, y: -4.181147e-15, z: -0.15000184, w: 0.00093770225}
        outSlope: {x: 4.564372e-16, y: -4.181147e-15, z: -0.15000184, w: 0.00093770225}
        tangentMode: 0
      - serializedVersion: 2
        time: 3.5
        value: {x: 3.7056682e-17, y: -3.2017795e-16, z: 0.000000018137671, w: 1}
        inSlope: {x: 4.468986e-16, y: -4.032466e-15, z: 0.12613891, w: 0.0006630446}
        outSlope: {x: 4.468986e-16, y: -4.032466e-15, z: 0.12613891, w: 0.0006630446}
        tangentMode: 0
      - serializedVersion: 2
        time: 3.6666667
        value: {x: 3.7056682e-17, y: -3.2017795e-16, z: 0.000000018137733, w: 1}
        inSlope: {x: -1.0323195e-21, y: 7.623282e-21, z: -0.0000007914912, w: 0}
        outSlope: {x: -1.0323195e-21, y: 7.623282e-21, z: -0.0000007914912, w: 0}
        tangentMode: 0
      - serializedVersion: 2
        time: 3.7083335
        value: {x: 3.7056596e-17, y: -3.2017732e-16, z: -0.000000047820052, w: 1}
        inSlope: {x: -4.4425173e-16, y: 3.876783e-15, z: -0.41488934, w: -0.0071740425}
        outSlope: {x: -4.4425173e-16, y: 3.876783e-15, z: -0.41488934, w: -0.0071740425}
        tangentMode: 0
      - serializedVersion: 2
        time: 3.75
        value: {x: 3.5842372e-20, y: 2.886059e-18, z: -0.03457396, w: 0.99940217}
        inSlope: {x: -4.441744e-16, y: 3.894312e-15, z: -0.38237643, w: -0.0060932934}
        outSlope: {x: -4.441744e-16, y: 3.894312e-15, z: -0.38237643, w: -0.0060932934}
        tangentMode: 0
      - serializedVersion: 2
        time: 3.7916667
        value: {x: 4.2204674e-20, y: 4.3474297e-18, z: -0.031864613, w: 0.9994922}
        inSlope: {x: 7.277421e-20, y: 1.5684244e-17, z: 0.02907822, w: 0.0009706002}
        outSlope: {x: 7.277421e-20, y: 1.5684244e-17, z: 0.02907822, w: 0.0009706002}
        tangentMode: 0
      - serializedVersion: 2
        time: 3.9583335
        value: {x: 1.9132365e-30, y: -2.5363498e-29, z: -0.03992438, w: 0.9992027}
        inSlope: {x: -4.443709e-19, y: -2.8545176e-17, z: -0.05291881, w: -0.002055641}
        outSlope: {x: -4.443709e-19, y: -2.8545176e-17, z: -0.05291881, w: -0.002055641}
        tangentMode: 0
      m_PreInfinity: 2
      m_PostInfinity: 2
      m_RotationOrder: 4
    path: pyramide/transform3/body_pyramid/spine/hip/Rhip/Rleg
  - curve:
      serializedVersion: 2
      m_Curve:
      - serializedVersion: 2
        time: 0
        value: {x: 0.9977419, y: 0.06716536, z: 4.112692e-18, w: 6.109407e-17}
        inSlope: {x: -0.015818596, y: 0.21990108, z: 1.8580949e-15, w: -1.4217734e-16}
        outSlope: {x: -0.015818596, y: 0.21990108, z: 1.8580949e-15, w: -1.4217734e-16}
        tangentMode: 0
      - serializedVersion: 2
        time: 0.2916667
        value: {x: 0.9817982, y: 0.18992744, z: 1.0323081e-15, w: -1.3733095e-16}
        inSlope: {x: -0.06286382, y: 0.3272221, z: 2.702199e-15, w: -8.681957e-16}
        outSlope: {x: -0.06286382, y: 0.3272221, z: 2.702199e-15, w: -8.681957e-16}
        tangentMode: 0
      - serializedVersion: 2
        time: 0.6666667
        value: {x: 0.97916496, y: 0.20306668, z: 1.1405348e-15, w: -1.7399751e-16}
        inSlope: {x: 0.041469075, y: -0.19968, z: -1.6408032e-15, w: 5.812211e-16}
        outSlope: {x: 0.041469075, y: -0.19968, z: -1.6408032e-15, w: 5.812211e-16}
        tangentMode: 0
      - serializedVersion: 2
        time: 0.875
        value: {x: 0.9846801, y: 0.17437042, z: 9.035687e-16, w: -9.782193e-17}
        inSlope: {x: 0.0081832465, y: -0.045954853, z: -3.8108245e-16, w: 1.1123119e-16}
        outSlope: {x: 0.0081832465, y: -0.045954853, z: -3.8108245e-16, w: 1.1123119e-16}
        tangentMode: 0
      - serializedVersion: 2
        time: 0.9583334
        value: {x: 0.97796845, y: 0.20875277, z: 1.187216e-15, w: -1.9080604e-16}
        inSlope: {x: -0.30670828, y: 1.3081951, z: 1.06349484e-14, w: -4.3825874e-15}
        outSlope: {x: -0.30670828, y: 1.3081951, z: 1.06349484e-14, w: -4.3825874e-15}
        tangentMode: 0
      - serializedVersion: 2
        time: 1.0416667
        value: {x: 0.93141824, y: 0.3639507, z: 2.4104906e-15, w: -8.7615574e-16}
        inSlope: {x: -0.75335, y: 1.9272403, z: 1.4360519e-14, w: -1.13136175e-14}
        outSlope: {x: -0.75335, y: 1.9272403, z: 1.4360519e-14, w: -1.13136175e-14}
        tangentMode: 0
      - serializedVersion: 2
        time: 1.2083334
        value: {x: 0.7716981, y: 0.635989, z: 4.0812343e-15, w: -3.2841701e-15}
        inSlope: {x: -0.995167, y: 1.2185452, z: 5.2094153e-15, w: -1.481895e-14}
        outSlope: {x: -0.995167, y: 1.2185452, z: 5.2094153e-15, w: -1.481895e-14}
        tangentMode: 0
      - serializedVersion: 2
        time: 1.4166667
        value: {x: 0.64216477, y: 0.76656663, z: 4.415663e-15, w: -5.175724e-15}
        inSlope: {x: -0.046145227, y: 0.039236598, z: 2.5537939e-17, w: -6.6032185e-16}
        outSlope: {x: -0.046145227, y: 0.039236598, z: 2.5537939e-17, w: -6.6032185e-16}
        tangentMode: 0
      - serializedVersion: 2
        time: 1.5
        value: {x: 0.6601414, y: 0.75114137, z: 4.403848e-15, w: -4.9181583e-15}
        inSlope: {x: 0.45522702, y: -0.40537727, z: -4.9458365e-16, w: 6.5552473e-15}
        outSlope: {x: 0.45522702, y: -0.40537727, z: -4.9458365e-16, w: 6.5552473e-15}
        tangentMode: 0
      - serializedVersion: 2
        time: 1.5833334
        value: {x: 0.72966456, y: 0.6838053, z: 4.2580677e-15, w: -3.9065304e-15}
        inSlope: {x: 1.408184, y: -1.5743852, z: -5.5585317e-15, w: 2.0790671e-14}
        outSlope: {x: 1.408184, y: -1.5743852, z: -5.5585317e-15, w: 2.0790671e-14}
        tangentMode: 0
      - serializedVersion: 2
        time: 1.6666667
        value: {x: 0.8812324, y: 0.47268328, z: 3.1778732e-15, w: -1.6350911e-15}
        inSlope: {x: 1.8169653, y: -3.529182, z: -2.3459364e-14, w: 2.7406725e-14}
        outSlope: {x: 1.8169653, y: -3.529182, z: -2.3459364e-14, w: 2.7406725e-14}
        tangentMode: 0
      - serializedVersion: 2
        time: 1.7083334
        value: {x: 0.9525493, y: 0.30438456, z: 1.9546685e-15, w: -5.6032643e-16}
        inSlope: {x: 1.4252129, y: -5.672207, z: -4.6139508e-14, w: 2.0355901e-14}
        outSlope: {x: 1.4252129, y: -5.672207, z: -4.6139508e-14, w: 2.0355901e-14}
        tangentMode: 0
      - serializedVersion: 2
        time: 1.75
        value: {x: 1, y: -0.00000015481544, z: -6.67082e-16, w: 6.123224e-17}
        inSlope: {x: 0.5694092, y: -3.65262, z: -3.1461036e-14, w: 7.458711e-15}
        outSlope: {x: 0.5694092, y: -3.65262, z: -3.1461036e-14, w: 7.458711e-15}
        tangentMode: 0
      - serializedVersion: 2
        time: 1.7916667
        value: {x: 1, y: -0.00000015481544, z: -6.67082e-16, w: 6.123224e-17}
        inSlope: {x: 0, y: -1.193713e-12, z: 0, w: 0}
        outSlope: {x: 0, y: -1.193713e-12, z: 0, w: 0}
        tangentMode: 0
      - serializedVersion: 2
        time: 1.8333334
        value: {x: 1, y: -0.00000015481554, z: -6.67082e-16, w: 6.123224e-17}
        inSlope: {x: 0, y: 0, z: 0, w: 0}
        outSlope: {x: 0, y: 0, z: 0, w: 0}
        tangentMode: 0
      - serializedVersion: 2
        time: 1.875
        value: {x: 1, y: -0.00000015481544, z: -6.67082e-16, w: 6.123224e-17}
        inSlope: {x: -0.3554664, y: 2.89911, z: 2.5462366e-14, w: -4.3238982e-15}
        outSlope: {x: -0.3554664, y: 2.89911, z: 2.5462366e-14, w: -4.3238982e-15}
        tangentMode: 0
      - serializedVersion: 2
        time: 1.9166667
        value: {x: 0.97037774, y: 0.24159282, z: 1.4547859e-15, w: -2.990933e-16}
        inSlope: {x: -0.66892254, y: 3.950527, z: 3.3770404e-14, w: -8.9396315e-15}
        outSlope: {x: -0.66892254, y: 3.950527, z: 3.3770404e-14, w: -8.9396315e-15}
        tangentMode: 0
      - serializedVersion: 2
        time: 1.9583334
        value: {x: 0.9442564, y: 0.32921082, z: 2.1471218e-15, w: -6.8373733e-16}
        inSlope: {x: -0.577375, y: 1.7396383, z: 1.3475399e-14, w: -8.57952e-15}
        outSlope: {x: -0.577375, y: 1.7396383, z: 1.3475399e-14, w: -8.57952e-15}
        tangentMode: 0
      - serializedVersion: 2
        time: 2.0833335
        value: {x: 0.8993022, y: 0.4373278, z: 2.9392685e-15, w: -1.3612682e-15}
        inSlope: {x: -0.07641484, y: 0.16117384, z: 1.126509e-15, w: -1.1569412e-15}
        outSlope: {x: -0.07641484, y: 0.16117384, z: 1.126509e-15, w: -1.1569412e-15}
        tangentMode: 0
      - serializedVersion: 2
        time: 2.2916667
        value: {x: 0.9595746, y: 0.2814544, z: 1.7741396e-15, w: -4.565639e-16}
        inSlope: {x: 0.39791816, y: -1.3615649, z: -1.0785763e-14, w: 5.846112e-15}
        outSlope: {x: 0.39791816, y: -1.3615649, z: -1.0785763e-14, w: 5.846112e-15}
        tangentMode: 0
      - serializedVersion: 2
        time: 2.375
        value: {x: 0.9842972, y: 0.17651904, z: 9.213853e-16, w: -1.0302752e-16}
        inSlope: {x: 0.17667493, y: -0.9430066, z: -7.7949156e-15, w: 2.4270132e-15}
        outSlope: {x: 0.17667493, y: -0.9430066, z: -7.7949156e-15, w: 2.4270132e-15}
        tangentMode: 0
      - serializedVersion: 2
        time: 2.5416667
        value: {x: 0.99833345, y: 0.057708587, z: -9.034319e-17, w: 6.655684e-17}
        inSlope: {x: 0.038712427, y: -0.65679955, z: -6.210416e-15, w: 3.0184535e-16}
        outSlope: {x: 0.038712427, y: -0.65679955, z: -6.210416e-15, w: 3.0184535e-16}
        tangentMode: 0
      - serializedVersion: 2
        time: 2.625
        value: {x: 0.99993706, y: 0.011221775, z: -5.549799e-16, w: 6.746445e-17}
        inSlope: {x: 0.0059359255, y: -0.37740517, z: -3.7714824e-15, w: -1.3357485e-16}
        outSlope: {x: 0.0059359255, y: -0.37740517, z: -3.7714824e-15, w: -1.3357485e-16}
        tangentMode: 0
      - serializedVersion: 2
        time: 2.6666667
        value: {x: 1, y: -0.000000031140267, z: -6.6708096e-16, w: 6.1232316e-17}
        inSlope: {x: -0.11820437, y: 1.5508319, z: 1.4111803e-14, w: -1.1246088e-15}
        outSlope: {x: -0.11820437, y: 1.5508319, z: 1.4111803e-14, w: -1.1246088e-15}
        tangentMode: 0
      - serializedVersion: 2
        time: 2.7083335
        value: {x: 0.9900867, y: 0.14045802, z: 6.210058e-16, w: -2.6253141e-17}
        inSlope: {x: -0.3915161, y: 3.040246, z: 2.660111e-14, w: -4.8455257e-15}
        outSlope: {x: -0.3915161, y: 3.040246, z: 2.660111e-14, w: -4.8455257e-15}
        tangentMode: 0
      - serializedVersion: 2
        time: 2.7916667
        value: {x: 0.9340543, y: 0.35713097, z: 2.359378e-15, w: -8.3654086e-16}
        inSlope: {x: -0.90369743, y: 2.382626, z: 1.7872825e-14, w: -1.3540165e-14}
        outSlope: {x: -0.90369743, y: 2.382626, z: 1.7872825e-14, w: -1.3540165e-14}
        tangentMode: 0
      - serializedVersion: 2
        time: 3.0416667
        value: {x: 0.627232, y: 0.77883244, z: 4.418111e-15, w: -5.388335e-15}
        inSlope: {x: -1.1868645, y: 0.9664253, z: 6.8157194e-17, w: -1.6863635e-14}
        outSlope: {x: -1.1868645, y: 0.9664253, z: 6.8157194e-17, w: -1.6863635e-14}
        tangentMode: 0
      - serializedVersion: 2
        time: 3.2083335
        value: {x: 0.5044296, y: 0.86345285, z: 4.2107876e-15, w: -7.086388e-15}
        inSlope: {x: -0.1260098, y: 0.075034395, z: -3.8299328e-16, w: -1.699116e-15}
        outSlope: {x: -0.1260098, y: 0.075034395, z: -3.8299328e-16, w: -1.699116e-15}
        tangentMode: 0
      - serializedVersion: 2
        time: 3.25
        value: {x: 0.5063696, y: 0.86231655, z: 4.2169645e-15, w: -7.06031e-15}
        inSlope: {x: 0.21200725, y: -0.12679894, z: 6.3615314e-16, w: 2.8609993e-15}
        outSlope: {x: 0.21200725, y: -0.12679894, z: 6.3615314e-16, w: 2.8609993e-15}
        tangentMode: 0
      - serializedVersion: 2
        time: 3.2916667
        value: {x: 0.5220969, y: 0.85288626, z: 4.2638004e-15, w: -6.8479713e-15}
        inSlope: {x: 0.89933795, y: -0.5836497, z: 2.0307052e-15, w: 1.2314329e-14}
        outSlope: {x: 0.89933795, y: -0.5836497, z: 2.0307052e-15, w: 1.2314329e-14}
        tangentMode: 0
      - serializedVersion: 2
        time: 3.3333335
        value: {x: 0.58131456, y: 0.813679, z: 4.3861903e-15, w: -6.034114e-15}
        inSlope: {x: 2.031669, y: -1.5649993, z: 1.1414423e-15, w: 2.8581033e-14}
        outSlope: {x: 2.031669, y: -1.5649993, z: 1.1414423e-15, w: 2.8581033e-14}
        tangentMode: 0
      - serializedVersion: 2
        time: 3.4166667
        value: {x: 0.8187124, y: 0.5742038, z: 3.7854796e-15, w: -2.5801543e-15}
        inSlope: {x: 2.8793209, y: -4.3000107, z: -2.3364586e-14, w: 4.3067722e-14}
        outSlope: {x: 2.8793209, y: -4.3000107, z: -2.3364586e-14, w: 4.3067722e-14}
        tangentMode: 0
      - serializedVersion: 2
        time: 3.4583335
        value: {x: 0.9313462, y: 0.364135, z: 2.4118683e-15, w: -8.7723915e-16}
        inSlope: {x: 2.1754515, y: -6.890459, z: -5.3430852e-14, w: 3.169664e-14}
        outSlope: {x: 2.1754515, y: -6.890459, z: -5.3430852e-14, w: 3.169664e-14}
        tangentMode: 0
      - serializedVersion: 2
        time: 3.5
        value: {x: 1, y: -0.00000015481544, z: -6.67082e-16, w: 6.123224e-17}
        inSlope: {x: 0.823849, y: -4.3696384, z: -3.6947547e-14, w: 1.12617e-14}
        outSlope: {x: 0.823849, y: -4.3696384, z: -3.6947547e-14, w: 1.12617e-14}
        tangentMode: 0
      - serializedVersion: 2
        time: 3.5416667
        value: {x: 1, y: -0.00000015481544, z: -6.67082e-16, w: 6.123224e-17}
        inSlope: {x: 0, y: 0, z: 0, w: 0}
        outSlope: {x: 0, y: 0, z: 0, w: 0}
        tangentMode: 0
      - serializedVersion: 2
        time: 3.6666667
        value: {x: 1, y: -0.00000015481565, z: -6.67082e-16, w: 6.123224e-17}
        inSlope: {x: 0, y: 0.0000028107909, z: 2.6046213e-20, w: 1.9058205e-21}
        outSlope: {x: 0, y: 0.0000028107909, z: 2.6046213e-20, w: 1.9058205e-21}
        tangentMode: 0
      - serializedVersion: 2
        time: 3.7083335
        value: {x: 1, y: 0.00000007941757, z: -6.6707984e-16, w: 6.1232396e-17}
        inSlope: {x: -0.090374336, y: 1.4699737, z: 1.36506746e-14, w: -6.9124824e-16}
        outSlope: {x: -0.090374336, y: 1.4699737, z: 1.36506746e-14, w: -6.9124824e-16}
        tangentMode: 0
      - serializedVersion: 2
        time: 3.75
        value: {x: 0.99246883, y: 0.12249718, z: 4.7046984e-16, w: 3.6284385e-18}
        inSlope: {x: -0.13645817, y: 1.8045471, z: 1.6451934e-14, w: -1.2763984e-15}
        outSlope: {x: -0.13645817, y: 1.8045471, z: 1.6451934e-14, w: -1.2763984e-15}
        tangentMode: 0
      - serializedVersion: 2
        time: 3.7916667
        value: {x: 0.9886285, y: 0.15037858, z: 7.0391074e-16, w: -4.5134005e-17}
        inSlope: {x: -0.04077236, y: 0.29930258, z: 2.5067436e-15, w: -5.15895e-16}
        outSlope: {x: -0.04077236, y: 0.29930258, z: 2.5067436e-15, w: -5.15895e-16}
        tangentMode: 0
      - serializedVersion: 2
        time: 3.9166667
        value: {x: 0.9959414, y: 0.09000428, z: 1.9697832e-16, w: 4.368073e-17}
        inSlope: {x: 0.06605875, y: -0.6863568, z: -5.7841068e-15, w: 7.2372745e-16}
        outSlope: {x: 0.06605875, y: -0.6863568, z: -5.7841068e-15, w: 7.2372745e-16}
        tangentMode: 0
      - serializedVersion: 2
        time: 3.9583335
        value: {x: 0.9977419, y: 0.06716536, z: 4.112692e-18, w: 6.109407e-17}
        inSlope: {x: 0.04321138, y: -0.548133, z: -4.628766e-15, w: 4.1791936e-16}
        outSlope: {x: 0.04321138, y: -0.548133, z: -4.628766e-15, w: 4.1791936e-16}
        tangentMode: 0
      m_PreInfinity: 2
      m_PostInfinity: 2
      m_RotationOrder: 4
    path: pyramide/transform3/body_pyramid/spine/hip/Rhip/Rleg/Rknee
  - curve:
      serializedVersion: 2
      m_Curve:
      - serializedVersion: 2
        time: 0
        value: {x: 0.72758335, y: 0.6860193, z: -9.580239e-10, w: 9.032957e-10}
        inSlope: {x: -0.013043404, y: 0.013823032, z: -1.8545698e-10, w: 2.095617e-10}
        outSlope: {x: -0.013043404, y: 0.013823032, z: -1.8545698e-10, w: 2.095617e-10}
        tangentMode: 0
      - serializedVersion: 2
        time: 0.75
        value: {x: 0.6507889, y: 0.7592587, z: -0.0000000018434387, w: 0.0000000021506927}
        inSlope: {x: -0.053212903, y: 0.04567124, z: -4.795353e-10, w: 8.6273155e-10}
        outSlope: {x: -0.053212903, y: 0.04567124, z: -4.795353e-10, w: 8.6273155e-10}
        tangentMode: 0
      - serializedVersion: 2
        time: 1.5
        value: {x: 0.70684844, y: 0.70736504, z: -0.0000000012374126, w: 0.000000001238317}
        inSlope: {x: 0.13558024, y: -0.13550013, z: 0.0000000017253483, w: -0.0000000022007451}
        outSlope: {x: 0.13558024, y: -0.13550013, z: 0.0000000017253483, w: -0.0000000022007451}
        tangentMode: 0
      - serializedVersion: 2
        time: 1.625
        value: {x: 0.73854154, y: 0.674208, z: -7.974549e-10, w: 7.2798956e-10}
        inSlope: {x: 0.38893944, y: -0.4268086, z: 0.0000000058763643, w: -0.0000000061873937}
        outSlope: {x: 0.38893944, y: -0.4268086, z: 0.0000000058763643, w: -0.0000000061873937}
        tangentMode: 0
      - serializedVersion: 2
        time: 1.75
        value: {x: 0.7732416, y: 0.6341115, z: -2.2676008e-10, w: 1.8595901e-10}
        inSlope: {x: 0.053127844, y: -0.064170696, z: 9.357778e-10, w: -8.140074e-10}
        outSlope: {x: 0.053127844, y: -0.064170696, z: 9.357778e-10, w: -8.140074e-10}
        tangentMode: 0
      - serializedVersion: 2
        time: 2.0833335
        value: {x: 0.7347202, y: 0.6783703, z: -8.5448654e-10, w: 7.889511e-10}
        inSlope: {x: -0.19479582, y: 0.21087119, z: -0.0000000028758103, w: 0.000000003112412}
        outSlope: {x: -0.19479582, y: 0.21087119, z: -0.0000000028758103, w: 0.000000003112412}
        tangentMode: 0
      - serializedVersion: 2
        time: 2.625
        value: {x: 0.6580371, y: 0.7529855, z: -0.0000000017766956, w: 0.0000000020330555}
        inSlope: {x: 0.017809885, y: -0.01556398, z: 1.6806839e-10, w: -2.8936614e-10}
        outSlope: {x: 0.017809885, y: -0.01556398, z: 1.6806839e-10, w: -2.8936614e-10}
        tangentMode: 0
      - serializedVersion: 2
        time: 3.125
        value: {x: 0.57679534, y: 0.8168887, z: -0.00000000234664, w: 0.0000000033234386}
        inSlope: {x: -0.19257139, y: 0.13619988, z: -9.204009e-10, w: 0.0000000029588447}
        outSlope: {x: -0.19257139, y: 0.13619988, z: -9.204009e-10, w: 0.0000000029588447}
        tangentMode: 0
      - serializedVersion: 2
        time: 3.4166667
        value: {x: 0.58537513, y: 0.8107626, z: -0.0000000023039832, w: 0.0000000031910878}
        inSlope: {x: 0.3511713, y: -0.2542851, z: 0.000000001846594, w: -0.000000005445023}
        outSlope: {x: 0.3511713, y: -0.2542851, z: 0.000000001846594, w: -0.000000005445023}
        tangentMode: 0
      - serializedVersion: 2
        time: 3.7083335
        value: {x: 0.7151595, y: 0.6989613, z: -0.0000000011291958, w: 0.00000000110362}
        inSlope: {x: 0.4741649, y: -0.4845848, z: 0.000000006297898, w: -0.00000000766588}
        outSlope: {x: 0.4741649, y: -0.4845848, z: 0.000000006297898, w: -0.00000000766588}
        tangentMode: 0
      - serializedVersion: 2
        time: 3.9583335
        value: {x: 0.7855737, y: 0.6187681, z: 3.7888618e-17, w: 4.8102515e-17}
        inSlope: {x: 0.058916934, y: -0.074495174, z: 0.0000000011083123, w: -8.8010715e-10}
        outSlope: {x: 0.058916934, y: -0.074495174, z: 0.0000000011083123, w: -8.8010715e-10}
        tangentMode: 0
      m_PreInfinity: 2
      m_PostInfinity: 2
      m_RotationOrder: 4
    path: pyramide/transform3/body_pyramid/spine/hip/Rhip/Rleg/Rknee/Rankle
  - curve:
      serializedVersion: 2
      m_Curve:
      - serializedVersion: 2
        time: 0
        value: {x: 0.09559444, y: 0.7006152, z: -0.09559444, w: 0.7006152}
        inSlope: {x: 0, y: 0, z: 0, w: 0}
        outSlope: {x: 0, y: 0, z: 0, w: 0}
        tangentMode: 0
      - serializedVersion: 2
        time: 3.9583335
        value: {x: 0.09559444, y: 0.7006152, z: -0.09559444, w: 0.7006152}
        inSlope: {x: 0, y: 0, z: 0, w: 0}
        outSlope: {x: 0, y: 0, z: 0, w: 0}
        tangentMode: 0
      m_PreInfinity: 2
      m_PostInfinity: 2
      m_RotationOrder: 4
    path: pyramide/transform3/body_pyramid/spine/hip/Rhip/Rleg/Rknee/Rankle/Rfoot
  - curve:
      serializedVersion: 2
      m_Curve:
      - serializedVersion: 2
        time: 0
        value: {x: -0.49674475, y: -0.5032342, z: 0.49674475, w: 0.5032342}
        inSlope: {x: 0.43882155, y: -0.41795826, z: -0.43882155, w: 0.41795826}
        outSlope: {x: 0.43882155, y: -0.41795826, z: -0.43882155, w: 0.41795826}
        tangentMode: 0
      - serializedVersion: 2
        time: 0.083333336
        value: {x: -0.45032564, y: -0.54516685, z: 0.45032564, w: 0.54516685}
        inSlope: {x: 0.7082677, y: -0.5834849, z: -0.7082677, w: 0.5834849}
        outSlope: {x: 0.7082677, y: -0.5834849, z: -0.7082677, w: 0.5834849}
        tangentMode: 0
      - serializedVersion: 2
        time: 0.33333334
        value: {x: -0.24244626, y: -0.6642438, z: 0.24244626, w: 0.6642438}
        inSlope: {x: 0.8769975, y: -0.3211921, z: -0.8769975, w: 0.3211921}
        outSlope: {x: 0.8769975, y: -0.3211921, z: -0.8769975, w: 0.3211921}
        tangentMode: 0
      - serializedVersion: 2
        time: 0.5833334
        value: {x: -0.08204124, y: -0.7023313, z: 0.08204124, w: 0.7023313}
        inSlope: {x: 0.20372671, y: -0.025025364, z: -0.20372671, w: 0.025025364}
        outSlope: {x: 0.20372671, y: -0.025025364, z: -0.20372671, w: 0.025025364}
        tangentMode: 0
      - serializedVersion: 2
        time: 0.7083334
        value: {x: -0.1261168, y: -0.695769, z: 0.1261168, w: 0.695769}
        inSlope: {x: -1.0188153, y: 0.19640574, z: 1.0188153, w: -0.19640574}
        outSlope: {x: -1.0188153, y: 0.19640574, z: 1.0188153, w: -0.19640574}
        tangentMode: 0
      - serializedVersion: 2
        time: 0.7916667
        value: {x: -0.23632249, y: -0.66644704, z: 0.23632249, w: 0.66644704}
        inSlope: {x: -1.5534072, y: 0.56561106, z: 1.5534072, w: -0.56561106}
        outSlope: {x: -1.5534072, y: 0.56561106, z: 1.5534072, w: -0.56561106}
        tangentMode: 0
      - serializedVersion: 2
        time: 0.8333334
        value: {x: -0.30550152, y: -0.6377059, z: 0.30550152, w: 0.6377059}
        inSlope: {x: -0.8750725, y: 0.366577, z: 0.8750725, w: -0.366577}
        outSlope: {x: -0.8750725, y: 0.366577, z: 0.8750725, w: -0.366577}
        tangentMode: 0
      - serializedVersion: 2
        time: 0.875
        value: {x: -0.30924523, y: -0.63589895, z: 0.30924523, w: 0.63589895}
        inSlope: {x: -0.09971453, y: 0.04857374, z: 0.09971453, w: -0.04857374}
        outSlope: {x: -0.09971453, y: 0.04857374, z: 0.09971453, w: -0.04857374}
        tangentMode: 0
      - serializedVersion: 2
        time: 1.375
        value: {x: -0.39830756, y: -0.5842526, z: 0.39830756, w: 0.5842526}
        inSlope: {x: -0.21809138, y: 0.14870946, z: 0.21809138, w: -0.14870946}
        outSlope: {x: -0.21809138, y: 0.14870946, z: 0.21809138, w: -0.14870946}
        tangentMode: 0
      - serializedVersion: 2
        time: 1.4166667
        value: {x: -0.40739822, y: -0.5779504, z: 0.40739822, w: 0.5779504}
        inSlope: {x: 0.03261672, y: -0.022125244, z: -0.03261672, w: 0.022125244}
        outSlope: {x: 0.03261672, y: -0.022125244, z: -0.03261672, w: 0.022125244}
        tangentMode: 0
      - serializedVersion: 2
        time: 1.4583334
        value: {x: -0.39558953, y: -0.58609635, z: 0.39558953, w: 0.58609635}
        inSlope: {x: 0.21328768, y: -0.14553967, z: -0.21328768, w: 0.14553967}
        outSlope: {x: 0.21328768, y: -0.14553967, z: -0.21328768, w: 0.14553967}
        tangentMode: 0
      - serializedVersion: 2
        time: 1.625
        value: {x: -0.39628565, y: -0.5856259, z: 0.39628565, w: 0.5856259}
        inSlope: {x: -0.3115583, y: 0.2138026, z: 0.3115583, w: -0.2138026}
        outSlope: {x: -0.3115583, y: 0.2138026, z: 0.3115583, w: -0.2138026}
        tangentMode: 0
      - serializedVersion: 2
        time: 1.75
        value: {x: -0.4325563, y: -0.5593703, z: 0.4325563, w: 0.5593703}
        inSlope: {x: 0.07350155, y: -0.055415664, z: -0.07350155, w: 0.055415664}
        outSlope: {x: 0.07350155, y: -0.055415664, z: -0.07350155, w: 0.055415664}
        tangentMode: 0
      - serializedVersion: 2
        time: 1.9166667
        value: {x: -0.356817, y: -0.61047655, z: 0.356817, w: 0.61047655}
        inSlope: {x: 0.6726967, y: -0.39139777, z: -0.6726967, w: 0.39139777}
        outSlope: {x: 0.6726967, y: -0.39139777, z: -0.6726967, w: 0.39139777}
        tangentMode: 0
      - serializedVersion: 2
        time: 2.125
        value: {x: -0.19373228, y: -0.68004984, z: 0.19373228, w: 0.68004984}
        inSlope: {x: 0.78553903, y: -0.22525364, z: -0.78553903, w: 0.22525364}
        outSlope: {x: 0.78553903, y: -0.22525364, z: -0.78553903, w: 0.22525364}
        tangentMode: 0
      - serializedVersion: 2
        time: 2.3333335
        value: {x: -0.08134166, y: -0.70241266, z: 0.08134166, w: 0.70241266}
        inSlope: {x: 0.17427823, y: -0.0210986, z: -0.17427823, w: 0.0210986}
        outSlope: {x: 0.17427823, y: -0.0210986, z: -0.17427823, w: 0.0210986}
        tangentMode: 0
      - serializedVersion: 2
        time: 2.4583335
        value: {x: -0.12611693, y: -0.695769, z: 0.12611693, w: 0.695769}
        inSlope: {x: -1.0188162, y: 0.19640604, z: 1.0188162, w: -0.19640604}
        outSlope: {x: -1.0188162, y: 0.19640604, z: 1.0188162, w: -0.19640604}
        tangentMode: 0
      - serializedVersion: 2
        time: 2.5416667
        value: {x: -0.23632264, y: -0.66644704, z: 0.23632264, w: 0.66644704}
        inSlope: {x: -1.5534058, y: 0.565611, z: 1.5534058, w: -0.565611}
        outSlope: {x: -1.5534058, y: 0.565611, z: 1.5534058, w: -0.565611}
        tangentMode: 0
      - serializedVersion: 2
        time: 2.5833335
        value: {x: -0.30550158, y: -0.63770586, z: 0.30550158, w: 0.63770586}
        inSlope: {x: -0.8750696, y: 0.36657658, z: 0.8750696, w: -0.36657658}
        outSlope: {x: -0.8750696, y: 0.36657658, z: 0.8750696, w: -0.36657658}
        tangentMode: 0
      - serializedVersion: 2
        time: 2.625
        value: {x: -0.30924523, y: -0.63589895, z: 0.30924523, w: 0.63589895}
        inSlope: {x: -0.09971387, y: 0.048573047, z: 0.09971387, w: -0.048573047}
        outSlope: {x: -0.09971387, y: 0.048573047, z: 0.09971387, w: -0.048573047}
        tangentMode: 0
      - serializedVersion: 2
        time: 3.125
        value: {x: -0.39830756, y: -0.5842526, z: 0.39830756, w: 0.5842526}
        inSlope: {x: -0.2180917, y: 0.14870967, z: 0.2180917, w: -0.14870967}
        outSlope: {x: -0.2180917, y: 0.14870967, z: 0.2180917, w: -0.14870967}
        tangentMode: 0
      - serializedVersion: 2
        time: 3.1666667
        value: {x: -0.40739822, y: -0.5779504, z: 0.40739822, w: 0.5779504}
        inSlope: {x: 0.032616675, y: -0.022124961, z: -0.032616675, w: 0.022124961}
        outSlope: {x: 0.032616675, y: -0.022124961, z: -0.032616675, w: 0.022124961}
        tangentMode: 0
      - serializedVersion: 2
        time: 3.2083335
        value: {x: -0.3955895, y: -0.58609635, z: 0.3955895, w: 0.58609635}
        inSlope: {x: 0.21328747, y: -0.14553952, z: -0.21328747, w: 0.14553952}
        outSlope: {x: 0.21328747, y: -0.14553952, z: -0.21328747, w: 0.14553952}
        tangentMode: 0
      - serializedVersion: 2
        time: 3.3333335
        value: {x: -0.38560775, y: -0.5927113, z: 0.38560775, w: 0.5927113}
        inSlope: {x: -0.072390676, y: 0.047824375, z: 0.072390676, w: -0.047824375}
        outSlope: {x: -0.072390676, y: 0.047824375, z: 0.072390676, w: -0.047824375}
        tangentMode: 0
      - serializedVersion: 2
        time: 3.5
        value: {x: -0.4325563, y: -0.5593703, z: 0.4325563, w: 0.5593703}
        inSlope: {x: -0.099352576, y: 0.07584669, z: 0.099352576, w: -0.07584669}
        outSlope: {x: -0.099352576, y: 0.07584669, z: 0.099352576, w: -0.07584669}
        tangentMode: 0
      - serializedVersion: 2
        time: 3.6666667
        value: {x: -0.44218296, y: -0.55179185, z: 0.44218296, w: 0.55179185}
        inSlope: {x: -0.11347726, y: 0.09113986, z: 0.11347726, w: -0.09113986}
        outSlope: {x: -0.11347726, y: 0.09113986, z: 0.11347726, w: -0.09113986}
        tangentMode: 0
      - serializedVersion: 2
        time: 3.875
        value: {x: -0.48053843, y: -0.51873195, z: 0.48053843, w: 0.51873195}
        inSlope: {x: -0.240265, y: 0.22276159, z: 0.240265, w: -0.22276159}
        outSlope: {x: -0.240265, y: 0.22276159, z: 0.240265, w: -0.22276159}
        tangentMode: 0
      - serializedVersion: 2
        time: 3.9583335
        value: {x: -0.49674475, y: -0.5032342, z: 0.49674475, w: 0.5032342}
        inSlope: {x: -0.14560862, y: 0.14201948, z: 0.14560862, w: -0.14201948}
        outSlope: {x: -0.14560862, y: 0.14201948, z: 0.14560862, w: -0.14201948}
        tangentMode: 0
      m_PreInfinity: 2
      m_PostInfinity: 2
      m_RotationOrder: 4
    path: pyramide/transform3/body_pyramid/spine/hip/Lhip
  - curve:
      serializedVersion: 2
      m_Curve:
      - serializedVersion: 2
        time: 0
        value: {x: -4.734829e-30, y: 7.2574595e-29, z: -0.042449366, w: 0.9990986}
        inSlope: {x: 4.3334334e-18, y: -9.196247e-17, z: 0.11090541, w: 0.0044560432}
        outSlope: {x: 4.3334334e-18, y: -9.196247e-17, z: 0.11090541, w: 0.0044560432}
        tangentMode: 0
      - serializedVersion: 2
        time: 0.75
        value: {x: 1.3614289e-18, y: -2.0294198e-17, z: -0.017939035, w: 0.9998391}
        inSlope: {x: -1.801166e-17, y: 2.0097185e-16, z: -0.24316409, w: -0.004620552}
        outSlope: {x: -1.801166e-17, y: 2.0097185e-16, z: -0.24316409, w: -0.004620552}
        tangentMode: 0
      - serializedVersion: 2
        time: 0.7916667
        value: {x: 6.164788e-19, y: -1.1038338e-17, z: -0.02912914, w: 0.9995757}
        inSlope: {x: -2.354034e-16, y: 2.271395e-15, z: 0.21526875, w: 0.0019304743}
        outSlope: {x: -2.354034e-16, y: 2.271395e-15, z: 0.21526875, w: 0.0019304743}
        tangentMode: 0
      - serializedVersion: 2
        time: 0.8333334
        value: {x: -1.8255529e-17, y: 1.689888e-16, z: 0.000000036821227, w: 1}
        inSlope: {x: -2.2646381e-16, y: 2.1603237e-15, z: 0.34954977, w: 0.0050919033}
        outSlope: {x: -2.2646381e-16, y: 2.1603237e-15, z: 0.34954977, w: 0.0050919033}
        tangentMode: 0
      - serializedVersion: 2
        time: 0.9166667
        value: {x: -1.8255514e-17, y: 1.6898872e-16, z: 0.000000022931484, w: 1}
        inSlope: {x: 0, y: 0, z: 0, w: 0}
        outSlope: {x: 0, y: 0, z: 0, w: 0}
        tangentMode: 0
      - serializedVersion: 2
        time: 1.375
        value: {x: -1.8255514e-17, y: 1.6898872e-16, z: 0.000000022931484, w: 1}
        inSlope: {x: 2.5807987e-22, y: -2.2234572e-21, z: -0.00000043336328, w: 0}
        outSlope: {x: 2.5807987e-22, y: -2.2234572e-21, z: -0.00000043336328, w: 0}
        tangentMode: 0
      - serializedVersion: 2
        time: 1.4166667
        value: {x: -1.8255492e-17, y: 1.6898854e-16, z: -0.000000013182191, w: 1}
        inSlope: {x: 2.2121464e-16, y: -2.0734911e-15, z: -0.45437202, w: -0.00860525}
        outSlope: {x: 2.2121464e-16, y: -2.0734911e-15, z: -0.45437202, w: -0.00860525}
        tangentMode: 0
      - serializedVersion: 2
        time: 1.4583334
        value: {x: 1.7902382e-19, y: -3.8020468e-18, z: -0.037864275, w: 0.9992829}
        inSlope: {x: 2.231734e-16, y: -2.1089386e-15, z: -0.411595, w: -0.0070610116}
        outSlope: {x: 2.231734e-16, y: -2.1089386e-15, z: -0.411595, w: -0.0070610116}
        tangentMode: 0
      - serializedVersion: 2
        time: 1.5
        value: {x: 3.4227586e-19, y: -6.756169e-18, z: -0.034299564, w: 0.9994116}
        inSlope: {x: 3.683092e-18, y: -6.34078e-17, z: 0.076527916, w: 0.002655744}
        outSlope: {x: 3.683092e-18, y: -6.34078e-17, z: 0.076527916, w: 0.002655744}
        tangentMode: 0
      - serializedVersion: 2
        time: 2
        value: {x: 2.8342196e-18, y: -3.3882473e-17, z: -0.0014699957, w: 0.9999989}
        inSlope: {x: 7.827973e-18, y: -6.281018e-17, z: 0.07624799, w: 0.00012874615}
        outSlope: {x: 7.827973e-18, y: -6.281018e-17, z: 0.07624799, w: 0.00012874615}
        tangentMode: 0
      - serializedVersion: 2
        time: 2.5
        value: {x: 1.3614289e-18, y: -2.0294198e-17, z: -0.017939035, w: 0.9998391}
        inSlope: {x: -1.8011773e-17, y: 2.009733e-16, z: -0.24316376, w: -0.0046205516}
        outSlope: {x: -1.8011773e-17, y: 2.009733e-16, z: -0.24316376, w: -0.0046205516}
        tangentMode: 0
      - serializedVersion: 2
        time: 2.5416667
        value: {x: 6.164685e-19, y: -1.10382025e-17, z: -0.029129129, w: 0.9995757}
        inSlope: {x: -2.3540345e-16, y: 2.2713949e-15, z: 0.21526895, w: 0.0019304715}
        outSlope: {x: -2.3540345e-16, y: 2.2713949e-15, z: 0.21526895, w: 0.0019304715}
        tangentMode: 0
      - serializedVersion: 2
        time: 2.5833335
        value: {x: -1.8255563e-17, y: 1.6898907e-16, z: 0.000000078497706, w: 1}
        inSlope: {x: -2.2646334e-16, y: 2.160319e-15, z: 0.34954917, w: 0.005091896}
        outSlope: {x: -2.2646334e-16, y: 2.160319e-15, z: 0.34954917, w: 0.005091896}
        tangentMode: 0
      - serializedVersion: 2
        time: 2.6666667
        value: {x: -1.8255514e-17, y: 1.6898872e-16, z: 0.000000022931484, w: 1}
        inSlope: {x: 0, y: 0, z: 0, w: 0}
        outSlope: {x: 0, y: 0, z: 0, w: 0}
        tangentMode: 0
      - serializedVersion: 2
        time: 3.125
        value: {x: -1.8255514e-17, y: 1.6898872e-16, z: 0.000000022931484, w: 1}
        inSlope: {x: 2.5807987e-22, y: -2.2234572e-21, z: -0.00000043336328, w: 0}
        outSlope: {x: 2.5807987e-22, y: -2.2234572e-21, z: -0.00000043336328, w: 0}
        tangentMode: 0
      - serializedVersion: 2
        time: 3.1666667
        value: {x: -1.8255492e-17, y: 1.6898854e-16, z: -0.000000013182191, w: 1}
        inSlope: {x: 2.2121423e-16, y: -2.0734884e-15, z: -0.45437133, w: -0.008605225}
        outSlope: {x: 2.2121423e-16, y: -2.0734884e-15, z: -0.45437133, w: -0.008605225}
        tangentMode: 0
      - serializedVersion: 2
        time: 3.2083335
        value: {x: 1.7904102e-19, y: -3.802299e-18, z: -0.037864327, w: 0.9992829}
        inSlope: {x: 2.231728e-16, y: -2.1089329e-15, z: -0.41159356, w: -0.007060982}
        outSlope: {x: 2.231728e-16, y: -2.1089329e-15, z: -0.41159356, w: -0.007060982}
        tangentMode: 0
      - serializedVersion: 2
        time: 3.25
        value: {x: 3.4227586e-19, y: -6.756169e-18, z: -0.034299564, w: 0.9994116}
        inSlope: {x: 3.6828935e-18, y: -6.340487e-17, z: 0.07652867, w: 0.0026557483}
        outSlope: {x: 3.6828935e-18, y: -6.340487e-17, z: 0.07652867, w: 0.0026557483}
        tangentMode: 0
      - serializedVersion: 2
        time: 3.875
        value: {x: 1.8610004e-19, y: -3.938546e-18, z: -0.0376995, w: 0.99928916}
        inSlope: {x: -3.1155832e-18, y: 5.9867634e-17, z: -0.07222338, w: -0.0027244114}
        outSlope: {x: -3.1155832e-18, y: 5.9867634e-17, z: -0.07222338, w: -0.0027244114}
        tangentMode: 0
      - serializedVersion: 2
        time: 3.9583335
        value: {x: -4.734829e-30, y: 7.2574595e-29, z: -0.042449366, w: 0.9990986}
        inSlope: {x: -1.5439473e-18, y: 3.4894922e-17, z: -0.042074837, w: -0.0017509427}
        outSlope: {x: -1.5439473e-18, y: 3.4894922e-17, z: -0.042074837, w: -0.0017509427}
        tangentMode: 0
      m_PreInfinity: 2
      m_PostInfinity: 2
      m_RotationOrder: 4
    path: pyramide/transform3/body_pyramid/spine/hip/Lhip/Lleg
  - curve:
      serializedVersion: 2
      m_Curve:
      - serializedVersion: 2
        time: 0
        value: {x: 0.99756336, y: 0.06976654, z: 4.271968e-18, w: 6.108314e-17}
        inSlope: {x: -0.15784407, y: 1.540682, z: -6.0273365e-15, w: 8.178633e-16}
        outSlope: {x: -0.15784407, y: 1.540682, z: -6.0273365e-15, w: 8.178633e-16}
        tangentMode: 0
      - serializedVersion: 2
        time: 0.041666668
        value: {x: 0.9909865, y: 0.13396162, z: -2.4686706e-16, w: 9.516078e-17}
        inSlope: {x: -0.26967287, y: 1.8244843, z: -7.0642577e-15, w: 1.6158287e-15}
        outSlope: {x: -0.26967287, y: 1.8244843, z: -7.0642577e-15, w: 1.6158287e-15}
        tangentMode: 0
      - serializedVersion: 2
        time: 0.125
        value: {x: 0.95225346, y: 0.30530858, z: -8.933863e-16, w: 3.5073734e-16}
        inSlope: {x: -0.60919905, y: 1.9176204, z: -6.908798e-15, w: 4.1937533e-15}
        outSlope: {x: -0.60919905, y: 1.9176204, z: -6.908798e-15, w: 4.1937533e-15}
        tangentMode: 0
      - serializedVersion: 2
        time: 0.45833334
        value: {x: 0.7461934, y: 0.6657292, z: -1.9034234e-15, w: 1.7802314e-15}
        inSlope: {x: -0.18408398, y: 0.20872526, z: -3.2524803e-16, w: 1.2454056e-15}
        outSlope: {x: -0.18408398, y: 0.20872526, z: -3.2524803e-16, w: 1.2454056e-15}
        tangentMode: 0
      - serializedVersion: 2
        time: 0.5833334
        value: {x: 0.7561869, y: 0.6543557, z: -1.8855265e-15, w: 1.712589e-15}
        inSlope: {x: 0.32511675, y: -0.37955418, z: 6.3578325e-16, w: -2.2073225e-15}
        outSlope: {x: 0.32511675, y: -0.37955418, z: 6.3578325e-16, w: -2.2073225e-15}
        tangentMode: 0
      - serializedVersion: 2
        time: 0.6666667
        value: {x: 0.8062858, y: 0.59152615, z: -1.7635851e-15, w: 1.369786e-15}
        inSlope: {x: 1.0263822, y: -1.4589357, z: 3.4123942e-15, w: -7.0979476e-15}
        outSlope: {x: 1.0263822, y: -1.4589357, z: 3.4123942e-15, w: -7.0979476e-15}
        tangentMode: 0
      - serializedVersion: 2
        time: 0.75
        value: {x: 0.9163029, y: 0.40048593, z: -1.2231913e-15, w: 6.014422e-16}
        inSlope: {x: 1.3088268, y: -3.1194506, z: 1.0381024e-14, w: -9.130697e-15}
        outSlope: {x: 1.3088268, y: -3.1194506, z: 1.0381024e-14, w: -9.130697e-15}
        tangentMode: 0
      - serializedVersion: 2
        time: 0.7916667
        value: {x: 0.9674519, y: 0.25305519, z: -7.0172513e-16, w: 2.4684176e-16}
        inSlope: {x: 1.0043645, y: -4.8058314, z: 1.8472277e-14, w: -6.4825142e-15}
        outSlope: {x: 1.0043645, y: -4.8058314, z: 1.8472277e-14, w: -6.4825142e-15}
        tangentMode: 0
      - serializedVersion: 2
        time: 0.8333334
        value: {x: 1, y: -0.00000021806218, z: 3.1616593e-16, w: 6.123241e-17}
        inSlope: {x: 0.39057738, y: -3.0366619, z: 1.221468e-14, w: -2.2273115e-15}
        outSlope: {x: 0.39057738, y: -3.0366619, z: 1.221468e-14, w: -2.2273115e-15}
        tangentMode: 0
      - serializedVersion: 2
        time: 0.875
        value: {x: 1, y: -0.000000096087916, z: 3.161654e-16, w: 6.123237e-17}
        inSlope: {x: 0, y: 0.0000014636926, z: -6.352753e-21, w: -4.764565e-22}
        outSlope: {x: 0, y: 0.0000014636926, z: -6.352753e-21, w: -4.764565e-22}
        tangentMode: 0
      - serializedVersion: 2
        time: 1.375
        value: {x: 1, y: -0.000000096087916, z: 3.161654e-16, w: 6.123237e-17}
        inSlope: {x: 0, y: 0.0000015317229, z: -6.352735e-21, w: -4.764551e-22}
        outSlope: {x: 0, y: 0.0000015317229, z: -6.352735e-21, w: -4.764551e-22}
        tangentMode: 0
      - serializedVersion: 2
        time: 1.4166667
        value: {x: 1, y: 0.000000031555896, z: 3.1616487e-16, w: 6.123233e-17}
        inSlope: {x: -0.107356414, y: 1.6015712, z: -6.7331598e-15, w: 4.0244746e-16}
        outSlope: {x: -0.107356414, y: 1.6015712, z: -6.7331598e-15, w: 4.0244746e-16}
        tangentMode: 0
      - serializedVersion: 2
        time: 1.4583334
        value: {x: 0.99105364, y: 0.13346404, z: -2.4493072e-16, w: 9.4769626e-17}
        inSlope: {x: -0.20178242, y: 2.1913607, z: -9.014145e-15, w: 9.821415e-16}
        outSlope: {x: -0.20178242, y: 2.1913607, z: -9.014145e-15, w: 9.821415e-16}
        tangentMode: 0
      - serializedVersion: 2
        time: 1.5
        value: {x: 0.9831848, y: 0.18261325, z: -4.3501315e-16, w: 1.4307738e-16}
        inSlope: {x: -0.18956342, y: 1.0513375, z: -4.0406275e-15, w: 1.1984058e-15}
        outSlope: {x: -0.18956342, y: 1.0513375, z: -4.0406275e-15, w: 1.1984058e-15}
        tangentMode: 0
      - serializedVersion: 2
        time: 1.5833334
        value: {x: 0.9634925, y: 0.26773536, z: -7.561853e-16, w: 2.736813e-16}
        inSlope: {x: -0.29682642, y: 1.0750145, z: -3.971966e-15, w: 2.0167736e-15}
        outSlope: {x: -0.29682642, y: 1.0750145, z: -3.971966e-15, w: 2.0167736e-15}
        tangentMode: 0
      - serializedVersion: 2
        time: 1.6666667
        value: {x: 0.94229186, y: 0.3347926, z: -9.985409e-16, w: 4.1976004e-16}
        inSlope: {x: -0.14486203, y: 0.4170834, z: -1.4781505e-15, w: 1.0056697e-15}
        outSlope: {x: -0.14486203, y: 0.4170834, z: -1.4781505e-15, w: 1.0056697e-15}
        tangentMode: 0
      - serializedVersion: 2
        time: 1.7916667
        value: {x: 0.9225565, y: 0.38586202, z: -1.1744676e-15, w: 5.575971e-16}
        inSlope: {x: -0.34489554, y: 0.80891293, z: -2.696649e-15, w: 2.4172484e-15}
        outSlope: {x: -0.34489554, y: 0.80891293, z: -2.696649e-15, w: 2.4172484e-15}
        tangentMode: 0
      - serializedVersion: 2
        time: 1.9583334
        value: {x: 0.82841223, y: 0.56011885, z: -1.6900467e-15, w: 1.2166158e-15}
        inSlope: {x: -0.66159505, y: 0.98275375, z: -2.4243745e-15, w: 4.593123e-15}
        outSlope: {x: -0.66159505, y: 0.98275375, z: -2.4243745e-15, w: 4.593123e-15}
        tangentMode: 0
      - serializedVersion: 2
        time: 2.25
        value: {x: 0.7278297, y: 0.68575794, z: -1.931352e-15, w: 1.9038414e-15}
        inSlope: {x: 0.16330212, y: -0.17495078, z: 2.3024124e-16, w: -1.0965676e-15}
        outSlope: {x: 0.16330212, y: -0.17495078, z: 2.3024124e-16, w: -1.0965676e-15}
        tangentMode: 0
      - serializedVersion: 2
        time: 2.375
        value: {x: 0.7728511, y: 0.6345874, z: -1.8511767e-15, w: 1.5992288e-15}
        inSlope: {x: 0.6375247, y: -0.7957521, z: 1.5308657e-15, w: -4.359919e-15}
        outSlope: {x: 0.6375247, y: -0.7957521, z: 1.5308657e-15, w: -4.359919e-15}
        tangentMode: 0
      - serializedVersion: 2
        time: 2.4583335
        value: {x: 0.8583832, y: 0.51300913, z: -1.5668095e-15, w: 1.0077316e-15}
        inSlope: {x: 1.3202055, y: -2.2924845, z: 6.4847326e-15, w: -9.2201264e-15}
        outSlope: {x: 1.3202055, y: -2.2924845, z: 6.4847326e-15, w: -9.2201264e-15}
        tangentMode: 0
      - serializedVersion: 2
        time: 2.5
        value: {x: 0.9163029, y: 0.40048593, z: -1.2231913e-15, w: 6.014422e-16}
        inSlope: {x: 1.3088264, y: -3.1194527, z: 1.0381029e-14, w: -9.130695e-15}
        outSlope: {x: 1.3088264, y: -3.1194527, z: 1.0381029e-14, w: -9.130695e-15}
        tangentMode: 0
      - serializedVersion: 2
        time: 2.5416667
        value: {x: 0.96745193, y: 0.2530549, z: -7.01724e-16, w: 2.4684123e-16}
        inSlope: {x: 1.0043631, y: -4.805829, z: 1.8472269e-14, w: -6.4825037e-15}
        outSlope: {x: 1.0043631, y: -4.805829, z: 1.8472269e-14, w: -6.4825037e-15}
        tangentMode: 0
      - serializedVersion: 2
        time: 2.5833335
        value: {x: 1, y: -0.00000058404873, z: 3.161674e-16, w: 6.123253e-17}
        inSlope: {x: 0.3905761, y: -3.036654, z: 1.221465e-14, w: -2.2273021e-15}
        outSlope: {x: 0.3905761, y: -3.036654, z: 1.221465e-14, w: -2.2273021e-15}
        tangentMode: 0
      - serializedVersion: 2
        time: 2.625
        value: {x: 1, y: -0.000000096087916, z: 3.161654e-16, w: 6.123237e-17}
        inSlope: {x: 0, y: 0.0000058555524, z: -2.4140531e-20, w: -1.9058314e-21}
        outSlope: {x: 0, y: 0.0000058555524, z: -2.4140531e-20, w: -1.9058314e-21}
        tangentMode: 0
      - serializedVersion: 2
        time: 3.125
        value: {x: 1, y: -0.000000096087916, z: 3.161654e-16, w: 6.123237e-17}
        inSlope: {x: 0, y: 0.0000015317229, z: -6.352735e-21, w: -4.764551e-22}
        outSlope: {x: 0, y: 0.0000015317229, z: -6.352735e-21, w: -4.764551e-22}
        tangentMode: 0
      - serializedVersion: 2
        time: 3.1666667
        value: {x: 1, y: 0.000000031555896, z: 3.1616487e-16, w: 6.123233e-17}
        inSlope: {x: -0.10735611, y: 1.6015694, z: -6.7331547e-15, w: 4.0244886e-16}
        outSlope: {x: -0.10735611, y: 1.6015694, z: -6.7331547e-15, w: 4.0244886e-16}
        tangentMode: 0
      - serializedVersion: 2
        time: 3.2083335
        value: {x: 0.99105364, y: 0.13346428, z: -2.4493186e-16, w: 9.476984e-17}
        inSlope: {x: -0.20178238, y: 2.1913579, z: -9.014132e-15, w: 9.82142e-16}
        outSlope: {x: -0.20178238, y: 2.1913579, z: -9.014132e-15, w: 9.82142e-16}
        tangentMode: 0
      - serializedVersion: 2
        time: 3.25
        value: {x: 0.9831848, y: 0.18261325, z: -4.3501315e-16, w: 1.4307738e-16}
        inSlope: {x: -0.18956369, y: 1.0513363, z: -4.0406208e-15, w: 1.1984049e-15}
        outSlope: {x: -0.18956369, y: 1.0513363, z: -4.0406208e-15, w: 1.1984049e-15}
        tangentMode: 0
      - serializedVersion: 2
        time: 3.2916667
        value: {x: 0.9752567, y: 0.22107552, z: -5.816498e-16, w: 1.9463683e-16}
        inSlope: {x: -0.25046134, y: 1.0719702, z: -4.0404225e-15, w: 1.6636233e-15}
        outSlope: {x: -0.25046134, y: 1.0719702, z: -4.0404225e-15, w: 1.6636233e-15}
        tangentMode: 0
      - serializedVersion: 2
        time: 3.4166667
        value: {x: 0.9370065, y: 0.34931213, z: -1.04941e-15, w: 4.565646e-16}
        inSlope: {x: -0.15881509, y: 0.43980813, z: -1.5438785e-15, w: 1.1052882e-15}
        outSlope: {x: -0.15881509, y: 0.43980813, z: -1.5438785e-15, w: 1.1052882e-15}
        tangentMode: 0
      - serializedVersion: 2
        time: 3.5416667
        value: {x: 0.93499, y: 0.35467416, z: -1.0680322e-15, w: 4.7063157e-16}
        inSlope: {x: 0.061300874, y: -0.1632965, z: 5.673958e-16, w: -4.275886e-16}
        outSlope: {x: 0.061300874, y: -0.1632965, z: 5.673958e-16, w: -4.275886e-16}
        tangentMode: 0
      - serializedVersion: 2
        time: 3.875
        value: {x: 0.99074394, y: 0.13574411, z: -2.538018e-16, w: 9.657838e-17}
        inSlope: {x: 0.13705035, y: -0.9989947, z: 3.883165e-15, w: -8.026698e-16}
        outSlope: {x: 0.13705035, y: -0.9989947, z: 3.883165e-15, w: -8.026698e-16}
        tangentMode: 0
      - serializedVersion: 2
        time: 3.9583335
        value: {x: 0.99756336, y: 0.06976654, z: 4.271968e-18, w: 6.108314e-17}
        inSlope: {x: 0.04817524, y: -0.5857, z: 2.2975656e-15, w: -2.1777176e-16}
        outSlope: {x: 0.04817524, y: -0.5857, z: 2.2975656e-15, w: -2.1777176e-16}
        tangentMode: 0
      m_PreInfinity: 2
      m_PostInfinity: 2
      m_RotationOrder: 4
    path: pyramide/transform3/body_pyramid/spine/hip/Lhip/Lleg/Lknee
  - curve:
      serializedVersion: 2
      m_Curve:
      - serializedVersion: 2
        time: 0
        value: {x: 0.77053964, y: 0.63739204, z: -3.902901e-17, w: -4.7181945e-17}
        inSlope: {x: 0.023609161, y: -0.02858448, z: -1.7524847e-18, w: 1.4428677e-18}
        outSlope: {x: 0.023609161, y: -0.02858448, z: -1.7524847e-18, w: 1.4428677e-18}
        tangentMode: 0
      - serializedVersion: 2
        time: 0.5416667
        value: {x: 0.8586981, y: 0.5124817, z: -4.722371e-17, w: -4.3124644e-17}
        inSlope: {x: 0.17834106, y: -0.29849753, z: -1.986106e-17, w: 4.4187703e-18}
        outSlope: {x: 0.17834106, y: -0.29849753, z: -1.986106e-17, w: 4.4187703e-18}
        tangentMode: 0
      - serializedVersion: 2
        time: 0.9583334
        value: {x: 0.8850624, y: 0.4654724, z: -5.029712e-17, w: -4.2731922e-17}
        inSlope: {x: -0.04484798, y: 0.085143, z: 5.4394227e-18, w: -1.9455298e-19}
        outSlope: {x: -0.04484798, y: 0.085143, z: 5.4394227e-18, w: -1.9455298e-19}
        tangentMode: 0
      - serializedVersion: 2
        time: 1.5
        value: {x: 0.8096892, y: 0.5868589, z: -4.225716e-17, w: -4.4996706e-17}
        inSlope: {x: -0.23527968, y: 0.32438403, z: 2.1357251e-17, w: -1.1647954e-17}
        outSlope: {x: -0.23527968, y: 0.32438403, z: 2.1357251e-17, w: -1.1647954e-17}
        tangentMode: 0
      - serializedVersion: 2
        time: 1.5833334
        value: {x: 0.77897245, y: 0.62705815, z: -3.966849e-17, w: -4.667417e-17}
        inSlope: {x: -0.6743037, y: 0.81959087, z: 5.0206644e-17, w: -4.0860512e-17}
        outSlope: {x: -0.6743037, y: 0.81959087, z: 5.0206644e-17, w: -4.0860512e-17}
        tangentMode: 0
      - serializedVersion: 2
        time: 1.6666667
        value: {x: 0.7021367, y: 0.7120422, z: -3.494955e-17, w: -5.1765972e-17}
        inSlope: {x: -0.91433513, y: 0.91227233, z: 4.2956445e-17, w: -6.417009e-17}
        outSlope: {x: -0.91433513, y: 0.91227233, z: 4.2956445e-17, w: -6.417009e-17}
        tangentMode: 0
      - serializedVersion: 2
        time: 1.75
        value: {x: 0.6524081, y: 0.7578678, z: -3.3164357e-17, w: -5.533061e-17}
        inSlope: {x: -0.17728059, y: 0.15567341, z: 5.178169e-18, w: -1.2744933e-17}
        outSlope: {x: -0.17728059, y: 0.15567341, z: 5.178169e-18, w: -1.2744933e-17}
        tangentMode: 0
      - serializedVersion: 2
        time: 1.875
        value: {x: 0.6525463, y: 0.7577489, z: -3.3168017e-17, w: -5.5320695e-17}
        inSlope: {x: 0.0034375158, y: -0.0029597254, z: -9.124124e-20, w: 2.4672458e-19}
        outSlope: {x: 0.0034375158, y: -0.0029597254, z: -9.124124e-20, w: 2.4672458e-19}
        tangentMode: 0
      - serializedVersion: 2
        time: 2.5416667
        value: {x: 0.68679154, y: 0.72685444, z: -3.4296635e-17, w: -5.2859822e-17}
        inSlope: {x: 0.1276257, y: -0.12068488, z: -5.0581664e-18, w: 9.137774e-18}
        outSlope: {x: 0.1276257, y: -0.12068488, z: -5.0581664e-18, w: 9.137774e-18}
        tangentMode: 0
      - serializedVersion: 2
        time: 2.5833335
        value: {x: 0.69237083, y: 0.7215419, z: -3.452327e-17, w: -5.2460843e-17}
        inSlope: {x: 2.3455272, y: -3.0729222, z: -1.8792814e-16, w: 1.2135518e-16}
        outSlope: {x: 2.3455272, y: -3.0729222, z: -1.8792814e-16, w: 1.2135518e-16}
        tangentMode: 0
      - serializedVersion: 2
        time: 2.625
        value: {x: 0.88225144, y: 0.47077852, z: -4.9957255e-17, w: -4.2746927e-17}
        inSlope: {x: 3.5011687, y: -6.529408, z: -3.343405e-16, w: 1.786182e-17}
        outSlope: {x: 3.5011687, y: -6.529408, z: -3.343405e-16, w: 1.786182e-17}
        tangentMode: 0
      - serializedVersion: 2
        time: 2.6666667
        value: {x: 0.9841344, y: 0.17742494, z: -6.238494e-17, w: -5.097241e-17}
        inSlope: {x: 1.2159617, y: -3.4837801, z: -1.4869014e-16, w: -9.681799e-17}
        outSlope: {x: 1.2159617, y: -3.4837801, z: -1.4869014e-16, w: -9.681799e-17}
        tangentMode: 0
      - serializedVersion: 2
        time: 2.7083335
        value: {x: 0.9835818, y: 0.18046296, z: -6.234812e-17, w: -5.0815108e-17}
        inSlope: {x: -0.026217045, y: 0.14061227, z: 1.8588184e-18, w: 7.214474e-18}
        outSlope: {x: -0.026217045, y: 0.14061227, z: 1.8588184e-18, w: 7.214474e-18}
        tangentMode: 0
      - serializedVersion: 2
        time: 3.0833335
        value: {x: 0.9248476, y: 0.38033786, z: -5.5353507e-17, w: -4.3444244e-17}
        inSlope: {x: -0.28724843, y: 0.69856083, z: 3.760735e-17, w: 1.2797059e-17}
        outSlope: {x: -0.28724843, y: 0.69856083, z: 3.760735e-17, w: 1.2797059e-17}
        tangentMode: 0
      - serializedVersion: 2
        time: 3.4166667
        value: {x: 0.82119495, y: 0.5706477, z: -4.3331678e-17, w: -4.4453775e-17}
        inSlope: {x: -0.29964006, y: 0.43297923, z: 2.883745e-17, w: -1.3272214e-17}
        outSlope: {x: -0.29964006, y: 0.43297923, z: 2.883745e-17, w: -1.3272214e-17}
        tangentMode: 0
      - serializedVersion: 2
        time: 3.75
        value: {x: 0.7765102, y: 0.6301047, z: -3.947861e-17, w: -4.6820613e-17}
        inSlope: {x: -0.05936058, y: 0.07321867, z: 4.553099e-18, w: -3.5448374e-18}
        outSlope: {x: -0.05936058, y: 0.07321867, z: 4.553099e-18, w: -3.5448374e-18}
        tangentMode: 0
      - serializedVersion: 2
        time: 3.9583335
        value: {x: 0.77053964, y: 0.63739204, z: -3.902901e-17, w: -4.7181945e-17}
        inSlope: {x: -0.005390157, y: 0.0065173977, z: 3.991106e-19, w: -3.2978636e-19}
        outSlope: {x: -0.005390157, y: 0.0065173977, z: 3.991106e-19, w: -3.2978636e-19}
        tangentMode: 0
      m_PreInfinity: 2
      m_PostInfinity: 2
      m_RotationOrder: 4
    path: pyramide/transform3/body_pyramid/spine/hip/Lhip/Lleg/Lknee/Lankle
  - curve:
      serializedVersion: 2
      m_Curve:
      - serializedVersion: 2
        time: 0
        value: {x: 0.08125116, y: 0.70242316, z: -0.08125116, w: 0.70242316}
        inSlope: {x: 0, y: 0, z: 0, w: 0}
        outSlope: {x: 0, y: 0, z: 0, w: 0}
        tangentMode: 0
      - serializedVersion: 2
        time: 3.9583335
        value: {x: 0.08125116, y: 0.70242316, z: -0.08125116, w: 0.70242316}
        inSlope: {x: 0, y: 0, z: 0, w: 0}
        outSlope: {x: 0, y: 0, z: 0, w: 0}
        tangentMode: 0
      m_PreInfinity: 2
      m_PostInfinity: 2
      m_RotationOrder: 4
    path: pyramide/transform3/body_pyramid/spine/hip/Lhip/Lleg/Lknee/Lankle/Lfoot
  m_CompressedRotationCurves: []
  m_EulerCurves: []
  m_PositionCurves:
  - curve:
      serializedVersion: 2
      m_Curve:
      - serializedVersion: 2
        time: 0
        value: {x: -7.557003, y: 0, z: 0}
        inSlope: {x: -9.744586e-14, y: -0, z: -9.772033e-10}
        outSlope: {x: -9.744586e-14, y: -0, z: -9.772033e-10}
        tangentMode: 0
      - serializedVersion: 2
        time: 2.0416667
        value: {x: -7.557003, y: 0, z: 0.6469873}
        inSlope: {x: -2.2737324e-13, y: -0, z: 0.46772113}
        outSlope: {x: -9.744568e-14, y: -0, z: 0.4677158}
        tangentMode: 0
      - serializedVersion: 2
        time: 3.9583333
        value: {x: -7.557003, y: 0, z: 1.2354716}
        inSlope: {x: -2.2737454e-13, y: -0, z: -0.000002616971}
        outSlope: {x: -2.2737454e-13, y: -0, z: -0.000002616971}
        tangentMode: 0
      m_PreInfinity: 2
      m_PostInfinity: 2
      m_RotationOrder: 4
    path: pyramide
  - curve:
      serializedVersion: 2
      m_Curve:
      - serializedVersion: 2
        time: 0
        value: {x: -0.30284494, y: -2.7755576e-16, z: 1.09326437e-16}
        inSlope: {x: 0, y: 0, z: 0}
        outSlope: {x: 0, y: 0, z: 0}
        tangentMode: 0
      - serializedVersion: 2
        time: 3.9583333
        value: {x: -0.30284494, y: -2.7755576e-16, z: 1.09326437e-16}
        inSlope: {x: 0, y: 0, z: 0}
        outSlope: {x: 0, y: 0, z: 0}
        tangentMode: 0
      m_PreInfinity: 2
      m_PostInfinity: 2
      m_RotationOrder: 4
    path: pyramide/transform3/body_pyramid/spine/hip/Rhip/Rleg/Rknee/Rankle
  - curve:
      serializedVersion: 2
      m_Curve:
      - serializedVersion: 2
        time: 0
        value: {x: -0.30167288, y: -1.04360964e-16, z: -5.778422e-17}
        inSlope: {x: 0, y: 0, z: 0}
        outSlope: {x: 0, y: 0, z: 0}
        tangentMode: 0
      - serializedVersion: 2
        time: 3.9583333
        value: {x: -0.30167288, y: -1.04360964e-16, z: -5.778422e-17}
        inSlope: {x: 0, y: 0, z: 0}
        outSlope: {x: 0, y: 0, z: 0}
        tangentMode: 0
      m_PreInfinity: 2
      m_PostInfinity: 2
      m_RotationOrder: 4
    path: pyramide/transform3/body_pyramid/spine/hip/Lhip/Lleg/Lknee/Lankle
  m_ScaleCurves:
  - curve:
      serializedVersion: 2
      m_Curve:
      - serializedVersion: 2
        time: 0
        value: {x: 20.44403, y: 20.44403, z: 20.44403}
        inSlope: {x: 0, y: 0, z: 0}
        outSlope: {x: 0, y: 0, z: 0}
        tangentMode: 0
      - serializedVersion: 2
        time: 3.9583335
        value: {x: 20.44403, y: 20.44403, z: 20.44403}
        inSlope: {x: 0, y: 0, z: 0}
        outSlope: {x: 0, y: 0, z: 0}
        tangentMode: 0
      m_PreInfinity: 2
      m_PostInfinity: 2
      m_RotationOrder: 4
    path: pyramide
  - curve:
      serializedVersion: 2
      m_Curve:
      - serializedVersion: 2
        time: 0
        value: {x: 1, y: 1, z: 1}
        inSlope: {x: 0, y: 0, z: 0}
        outSlope: {x: 0, y: 0, z: 0}
        tangentMode: 0
      - serializedVersion: 2
        time: 3.9583335
        value: {x: 1, y: 1, z: 1}
        inSlope: {x: 0, y: 0, z: 0}
        outSlope: {x: 0, y: 0, z: 0}
        tangentMode: 0
      m_PreInfinity: 2
      m_PostInfinity: 2
      m_RotationOrder: 4
    path: pyramide/transform3/body_pyramid/Rshoulder
  - curve:
      serializedVersion: 2
      m_Curve:
      - serializedVersion: 2
        time: 0
        value: {x: 1, y: 1, z: 1}
        inSlope: {x: 0, y: 0, z: 0}
        outSlope: {x: 0, y: 0, z: 0}
        tangentMode: 0
      - serializedVersion: 2
        time: 3.9583335
        value: {x: 1, y: 1, z: 1}
        inSlope: {x: 0, y: 0, z: 0}
        outSlope: {x: 0, y: 0, z: 0}
        tangentMode: 0
      m_PreInfinity: 2
      m_PostInfinity: 2
      m_RotationOrder: 4
    path: pyramide/transform3/body_pyramid/Rshoulder/Relbowq
  - curve:
      serializedVersion: 2
      m_Curve:
      - serializedVersion: 2
        time: 0
        value: {x: 1, y: 1, z: 1}
        inSlope: {x: 0, y: 0, z: 0}
        outSlope: {x: 0, y: 0, z: 0}
        tangentMode: 0
      - serializedVersion: 2
        time: 3.9583335
        value: {x: 1, y: 1, z: 1}
        inSlope: {x: 0, y: 0, z: 0}
        outSlope: {x: 0, y: 0, z: 0}
        tangentMode: 0
      m_PreInfinity: 2
      m_PostInfinity: 2
      m_RotationOrder: 4
    path: pyramide/transform3/body_pyramid/Rshoulder/Relbowq/Rhand
  - curve:
      serializedVersion: 2
      m_Curve:
      - serializedVersion: 2
        time: 0
        value: {x: 1, y: 1, z: 1}
        inSlope: {x: 0, y: 0, z: 0}
        outSlope: {x: 0, y: 0, z: 0}
        tangentMode: 0
      - serializedVersion: 2
        time: 3.9583335
        value: {x: 1, y: 1, z: 1}
        inSlope: {x: 0, y: 0, z: 0}
        outSlope: {x: 0, y: 0, z: 0}
        tangentMode: 0
      m_PreInfinity: 2
      m_PostInfinity: 2
      m_RotationOrder: 4
    path: pyramide/transform3/body_pyramid/Lshoulder
  - curve:
      serializedVersion: 2
      m_Curve:
      - serializedVersion: 2
        time: 0
        value: {x: 1, y: 1, z: 1}
        inSlope: {x: 0, y: 0, z: 0}
        outSlope: {x: 0, y: 0, z: 0}
        tangentMode: 0
      - serializedVersion: 2
        time: 3.9583335
        value: {x: 1, y: 1, z: 1}
        inSlope: {x: 0, y: 0, z: 0}
        outSlope: {x: 0, y: 0, z: 0}
        tangentMode: 0
      m_PreInfinity: 2
      m_PostInfinity: 2
      m_RotationOrder: 4
    path: pyramide/transform3/body_pyramid/Lshoulder/Lelbow
  - curve:
      serializedVersion: 2
      m_Curve:
      - serializedVersion: 2
        time: 0
        value: {x: 1, y: 1, z: 1}
        inSlope: {x: 0, y: 0, z: 0}
        outSlope: {x: 0, y: 0, z: 0}
        tangentMode: 0
      - serializedVersion: 2
        time: 3.9583335
        value: {x: 1, y: 1, z: 1}
        inSlope: {x: 0, y: 0, z: 0}
        outSlope: {x: 0, y: 0, z: 0}
        tangentMode: 0
      m_PreInfinity: 2
      m_PostInfinity: 2
      m_RotationOrder: 4
    path: pyramide/transform3/body_pyramid/Lshoulder/Lelbow/Lhand
  - curve:
      serializedVersion: 2
      m_Curve:
      - serializedVersion: 2
        time: 0
        value: {x: 1, y: 1, z: 1}
        inSlope: {x: 0, y: 0, z: 0}
        outSlope: {x: 0, y: 0, z: 0}
        tangentMode: 0
      - serializedVersion: 2
        time: 3.9583335
        value: {x: 1, y: 1, z: 1}
        inSlope: {x: 0, y: 0, z: 0}
        outSlope: {x: 0, y: 0, z: 0}
        tangentMode: 0
      m_PreInfinity: 2
      m_PostInfinity: 2
      m_RotationOrder: 4
    path: pyramide/transform3/body_pyramid/spine/hip/Rhip
  - curve:
      serializedVersion: 2
      m_Curve:
      - serializedVersion: 2
        time: 0
        value: {x: 1, y: 1, z: 1}
        inSlope: {x: 0, y: 0, z: 0}
        outSlope: {x: 0, y: 0, z: 0}
        tangentMode: 0
      - serializedVersion: 2
        time: 3.9583335
        value: {x: 1, y: 1, z: 1}
        inSlope: {x: 0, y: 0, z: 0}
        outSlope: {x: 0, y: 0, z: 0}
        tangentMode: 0
      m_PreInfinity: 2
      m_PostInfinity: 2
      m_RotationOrder: 4
    path: pyramide/transform3/body_pyramid/spine/hip/Rhip/Rleg
  - curve:
      serializedVersion: 2
      m_Curve:
      - serializedVersion: 2
        time: 0
        value: {x: 1, y: 1, z: 1}
        inSlope: {x: 0, y: 0, z: 0}
        outSlope: {x: 0, y: 0, z: 0}
        tangentMode: 0
      - serializedVersion: 2
        time: 3.9583335
        value: {x: 1, y: 1, z: 1}
        inSlope: {x: 0, y: 0, z: 0}
        outSlope: {x: 0, y: 0, z: 0}
        tangentMode: 0
      m_PreInfinity: 2
      m_PostInfinity: 2
      m_RotationOrder: 4
    path: pyramide/transform3/body_pyramid/spine/hip/Rhip/Rleg/Rknee
  - curve:
      serializedVersion: 2
      m_Curve:
      - serializedVersion: 2
        time: 0
        value: {x: 1, y: 1, z: 1}
        inSlope: {x: 0, y: 0, z: 0}
        outSlope: {x: 0, y: 0, z: 0}
        tangentMode: 0
      - serializedVersion: 2
        time: 3.9583335
        value: {x: 1, y: 1, z: 1}
        inSlope: {x: 0, y: 0, z: 0}
        outSlope: {x: 0, y: 0, z: 0}
        tangentMode: 0
      m_PreInfinity: 2
      m_PostInfinity: 2
      m_RotationOrder: 4
    path: pyramide/transform3/body_pyramid/spine/hip/Rhip/Rleg/Rknee/Rankle
  - curve:
      serializedVersion: 2
      m_Curve:
      - serializedVersion: 2
        time: 0
        value: {x: 1, y: 1, z: 1}
        inSlope: {x: 0, y: 0, z: 0}
        outSlope: {x: 0, y: 0, z: 0}
        tangentMode: 0
      - serializedVersion: 2
        time: 3.9583335
        value: {x: 1, y: 1, z: 1}
        inSlope: {x: 0, y: 0, z: 0}
        outSlope: {x: 0, y: 0, z: 0}
        tangentMode: 0
      m_PreInfinity: 2
      m_PostInfinity: 2
      m_RotationOrder: 4
    path: pyramide/transform3/body_pyramid/spine/hip/Rhip/Rleg/Rknee/Rankle/Rfoot
  - curve:
      serializedVersion: 2
      m_Curve:
      - serializedVersion: 2
        time: 0
        value: {x: 1, y: 1, z: 1}
        inSlope: {x: 0, y: 0, z: 0}
        outSlope: {x: 0, y: 0, z: 0}
        tangentMode: 0
      - serializedVersion: 2
        time: 3.9583335
        value: {x: 1, y: 1, z: 1}
        inSlope: {x: 0, y: 0, z: 0}
        outSlope: {x: 0, y: 0, z: 0}
        tangentMode: 0
      m_PreInfinity: 2
      m_PostInfinity: 2
      m_RotationOrder: 4
    path: pyramide/transform3/body_pyramid/spine/hip/Lhip
  - curve:
      serializedVersion: 2
      m_Curve:
      - serializedVersion: 2
        time: 0
        value: {x: 1, y: 1, z: 1}
        inSlope: {x: 0, y: 0, z: 0}
        outSlope: {x: 0, y: 0, z: 0}
        tangentMode: 0
      - serializedVersion: 2
        time: 3.9583335
        value: {x: 1, y: 1, z: 1}
        inSlope: {x: 0, y: 0, z: 0}
        outSlope: {x: 0, y: 0, z: 0}
        tangentMode: 0
      m_PreInfinity: 2
      m_PostInfinity: 2
      m_RotationOrder: 4
    path: pyramide/transform3/body_pyramid/spine/hip/Lhip/Lleg
  - curve:
      serializedVersion: 2
      m_Curve:
      - serializedVersion: 2
        time: 0
        value: {x: 1, y: 1, z: 1}
        inSlope: {x: 0, y: 0, z: 0}
        outSlope: {x: 0, y: 0, z: 0}
        tangentMode: 0
      - serializedVersion: 2
        time: 3.9583335
        value: {x: 1, y: 1, z: 1}
        inSlope: {x: 0, y: 0, z: 0}
        outSlope: {x: 0, y: 0, z: 0}
        tangentMode: 0
      m_PreInfinity: 2
      m_PostInfinity: 2
      m_RotationOrder: 4
    path: pyramide/transform3/body_pyramid/spine/hip/Lhip/Lleg/Lknee
  - curve:
      serializedVersion: 2
      m_Curve:
      - serializedVersion: 2
        time: 0
        value: {x: 1, y: 1, z: 1}
        inSlope: {x: 0, y: 0, z: 0}
        outSlope: {x: 0, y: 0, z: 0}
        tangentMode: 0
      - serializedVersion: 2
        time: 3.9583335
        value: {x: 1, y: 1, z: 1}
        inSlope: {x: 0, y: 0, z: 0}
        outSlope: {x: 0, y: 0, z: 0}
        tangentMode: 0
      m_PreInfinity: 2
      m_PostInfinity: 2
      m_RotationOrder: 4
    path: pyramide/transform3/body_pyramid/spine/hip/Lhip/Lleg/Lknee/Lankle
  - curve:
      serializedVersion: 2
      m_Curve:
      - serializedVersion: 2
        time: 0
        value: {x: 1, y: 1, z: 1}
        inSlope: {x: 0, y: 0, z: 0}
        outSlope: {x: 0, y: 0, z: 0}
        tangentMode: 0
      - serializedVersion: 2
        time: 3.9583335
        value: {x: 1, y: 1, z: 1}
        inSlope: {x: 0, y: 0, z: 0}
        outSlope: {x: 0, y: 0, z: 0}
        tangentMode: 0
      m_PreInfinity: 2
      m_PostInfinity: 2
      m_RotationOrder: 4
    path: pyramide/transform3/body_pyramid/spine/hip/Lhip/Lleg/Lknee/Lankle/Lfoot
  m_FloatCurves:
  - curve:
      serializedVersion: 2
      m_Curve:
      - serializedVersion: 2
        time: 0
        value: 1
        inSlope: 0
        outSlope: 0
        tangentMode: 0
      - serializedVersion: 2
        time: 3.9583335
        value: 1
        inSlope: 0
        outSlope: 0
        tangentMode: 0
      m_PreInfinity: 2
      m_PostInfinity: 2
      m_RotationOrder: 4
    attribute: m_Enabled
    path: pyramide
    classID: 25
    script: {fileID: 0}
  m_PPtrCurves: []
  m_SampleRate: 24
  m_WrapMode: 0
  m_Bounds:
    m_Center: {x: 0, y: 0, z: 0}
    m_Extent: {x: 0, y: 0, z: 0}
  m_ClipBindingConstant:
    genericBindings:
    - serializedVersion: 2
      path: 3761884467
      attribute: 1
      script: {fileID: 0}
      typeID: 4
      customType: 0
      isPPtrCurve: 0
    - serializedVersion: 2
      path: 3541860796
      attribute: 2
      script: {fileID: 0}
      typeID: 4
      customType: 0
      isPPtrCurve: 0
    - serializedVersion: 2
      path: 1373448511
      attribute: 2
      script: {fileID: 0}
      typeID: 4
      customType: 0
      isPPtrCurve: 0
    - serializedVersion: 2
      path: 241879864
      attribute: 2
      script: {fileID: 0}
      typeID: 4
      customType: 0
      isPPtrCurve: 0
    - serializedVersion: 2
      path: 4187515162
      attribute: 2
      script: {fileID: 0}
      typeID: 4
      customType: 0
      isPPtrCurve: 0
    - serializedVersion: 2
      path: 1675272464
      attribute: 2
      script: {fileID: 0}
      typeID: 4
      customType: 0
      isPPtrCurve: 0
    - serializedVersion: 2
      path: 2233045104
      attribute: 2
      script: {fileID: 0}
      typeID: 4
      customType: 0
      isPPtrCurve: 0
    - serializedVersion: 2
      path: 1103942842
      attribute: 2
      script: {fileID: 0}
      typeID: 4
      customType: 0
      isPPtrCurve: 0
    - serializedVersion: 2
      path: 291332921
      attribute: 2
      script: {fileID: 0}
      typeID: 4
      customType: 0
      isPPtrCurve: 0
    - serializedVersion: 2
      path: 4187515162
      attribute: 1
      script: {fileID: 0}
      typeID: 4
      customType: 0
      isPPtrCurve: 0
    - serializedVersion: 2
      path: 291332921
      attribute: 1
      script: {fileID: 0}
      typeID: 4
      customType: 0
      isPPtrCurve: 0
    - serializedVersion: 2
      path: 3761884467
      attribute: 2
      script: {fileID: 0}
      typeID: 4
      customType: 0
      isPPtrCurve: 0
    - serializedVersion: 2
      path: 1698369771
      attribute: 2
      script: {fileID: 0}
      typeID: 4
      customType: 0
      isPPtrCurve: 0
    - serializedVersion: 2
      path: 3860259852
      attribute: 2
      script: {fileID: 0}
      typeID: 4
      customType: 0
      isPPtrCurve: 0
    - serializedVersion: 2
      path: 1900417613
      attribute: 2
      script: {fileID: 0}
      typeID: 4
      customType: 0
      isPPtrCurve: 0
    - serializedVersion: 2
      path: 20547848
      attribute: 2
      script: {fileID: 0}
      typeID: 4
      customType: 0
      isPPtrCurve: 0
    - serializedVersion: 2
      path: 2242631366
      attribute: 2
      script: {fileID: 0}
      typeID: 4
      customType: 0
      isPPtrCurve: 0
    - serializedVersion: 2
      path: 1619857060
      attribute: 2
      script: {fileID: 0}
      typeID: 4
      customType: 0
      isPPtrCurve: 0
    - serializedVersion: 2
      path: 430889393
      attribute: 2
      script: {fileID: 0}
      typeID: 4
      customType: 0
      isPPtrCurve: 0
    - serializedVersion: 2
      path: 3952345159
      attribute: 2
      script: {fileID: 0}
      typeID: 4
      customType: 0
      isPPtrCurve: 0
    - serializedVersion: 2
      path: 3761884467
      attribute: 3
      script: {fileID: 0}
      typeID: 4
      customType: 0
      isPPtrCurve: 0
    - serializedVersion: 2
      path: 1698369771
      attribute: 3
      script: {fileID: 0}
      typeID: 4
      customType: 0
      isPPtrCurve: 0
    - serializedVersion: 2
      path: 3860259852
      attribute: 3
      script: {fileID: 0}
      typeID: 4
      customType: 0
      isPPtrCurve: 0
    - serializedVersion: 2
      path: 1900417613
      attribute: 3
      script: {fileID: 0}
      typeID: 4
      customType: 0
      isPPtrCurve: 0
    - serializedVersion: 2
      path: 20547848
      attribute: 3
      script: {fileID: 0}
      typeID: 4
      customType: 0
      isPPtrCurve: 0
    - serializedVersion: 2
      path: 2242631366
      attribute: 3
      script: {fileID: 0}
      typeID: 4
      customType: 0
      isPPtrCurve: 0
    - serializedVersion: 2
      path: 1619857060
      attribute: 3
      script: {fileID: 0}
      typeID: 4
      customType: 0
      isPPtrCurve: 0
    - serializedVersion: 2
      path: 3541860796
      attribute: 3
      script: {fileID: 0}
      typeID: 4
      customType: 0
      isPPtrCurve: 0
    - serializedVersion: 2
      path: 1373448511
      attribute: 3
      script: {fileID: 0}
      typeID: 4
      customType: 0
      isPPtrCurve: 0
    - serializedVersion: 2
      path: 241879864
      attribute: 3
      script: {fileID: 0}
      typeID: 4
      customType: 0
      isPPtrCurve: 0
    - serializedVersion: 2
      path: 4187515162
      attribute: 3
      script: {fileID: 0}
      typeID: 4
      customType: 0
      isPPtrCurve: 0
    - serializedVersion: 2
      path: 430889393
      attribute: 3
      script: {fileID: 0}
      typeID: 4
      customType: 0
      isPPtrCurve: 0
    - serializedVersion: 2
      path: 1675272464
      attribute: 3
      script: {fileID: 0}
      typeID: 4
      customType: 0
      isPPtrCurve: 0
    - serializedVersion: 2
      path: 2233045104
      attribute: 3
      script: {fileID: 0}
      typeID: 4
      customType: 0
      isPPtrCurve: 0
    - serializedVersion: 2
      path: 1103942842
      attribute: 3
      script: {fileID: 0}
      typeID: 4
      customType: 0
      isPPtrCurve: 0
    - serializedVersion: 2
      path: 291332921
      attribute: 3
      script: {fileID: 0}
      typeID: 4
      customType: 0
      isPPtrCurve: 0
    - serializedVersion: 2
      path: 3952345159
      attribute: 3
      script: {fileID: 0}
      typeID: 4
      customType: 0
      isPPtrCurve: 0
    - serializedVersion: 2
      path: 3761884467
      attribute: 3305885265
      script: {fileID: 0}
      typeID: 25
      customType: 0
      isPPtrCurve: 0
    pptrCurveMapping: []
  m_AnimationClipSettings:
    serializedVersion: 2
    m_AdditiveReferencePoseClip: {fileID: 0}
    m_AdditiveReferencePoseTime: 0
    m_StartTime: 0
    m_StopTime: 3.9583335
    m_OrientationOffsetY: 0
    m_Level: 0
    m_CycleOffset: 0
    m_HasAdditiveReferencePose: 0
    m_LoopTime: 0
    m_LoopBlend: 0
    m_LoopBlendOrientation: 0
    m_LoopBlendPositionY: 0
    m_LoopBlendPositionXZ: 0
    m_KeepOriginalOrientation: 0
    m_KeepOriginalPositionY: 1
    m_KeepOriginalPositionXZ: 0
    m_HeightFromFeet: 0
    m_Mirror: 0
  m_EditorCurves: []
  m_EulerEditorCurves: []
  m_HasGenericRootTransform: 0
  m_HasMotionFloatCurves: 0
  m_GenerateMotionCurves: 0
  m_Events: []
